%!PS-Adobe-3.0 EPSF-3.0
%%Creator: MATLAB, The MathWorks, Inc. Version 7.14.0.739 (R2012a). Operating System: Linux 4.1.3-1-ARCH #1 SMP PREEMPT Wed Jul 22 20:37:12 CEST 2015 x86_64.
%%Title: /home/globalbus/Magisterka/docs/graphics/diffHistogram2.eps
%%CreationDate: 08/08/2015  20:48:40
%%DocumentNeededFonts: Helvetica
%%DocumentProcessColors: Cyan Magenta Yellow Black
%%LanguageLevel: 2
%%Pages: 1
%%BoundingBox:    92   266   501   574
%%EndComments

%%BeginProlog
% MathWorks dictionary
/MathWorks 160 dict begin
% definition operators
/bdef {bind def} bind def
/ldef {load def} bind def
/xdef {exch def} bdef
/xstore {exch store} bdef
% operator abbreviations
/c  /clip ldef
/cc /concat ldef
/cp /closepath ldef
/gr /grestore ldef
/gs /gsave ldef
/mt /moveto ldef
/np /newpath ldef
/cm /currentmatrix ldef
/sm /setmatrix ldef
/rm /rmoveto ldef
/rl /rlineto ldef
/s {show newpath} bdef
/sc {setcmykcolor} bdef
/sr /setrgbcolor ldef
/sg /setgray ldef
/w /setlinewidth ldef
/j /setlinejoin ldef
/cap /setlinecap ldef
/rc {rectclip} bdef
/rf {rectfill} bdef
% page state control
/pgsv () def
/bpage {/pgsv save def} bdef
/epage {pgsv restore} bdef
/bplot /gsave ldef
/eplot {stroke grestore} bdef
% orientation switch
/portraitMode 0 def /landscapeMode 1 def /rotateMode 2 def
% coordinate system mappings
/dpi2point 0 def
% font control
/FontSize 0 def
/FMS {/FontSize xstore findfont [FontSize 0 0 FontSize neg 0 0]
  makefont setfont} bdef
/reencode {exch dup where {pop load} {pop StandardEncoding} ifelse
  exch dup 3 1 roll findfont dup length dict begin
  { 1 index /FID ne {def}{pop pop} ifelse } forall
  /Encoding exch def currentdict end definefont pop} bdef
/isroman {findfont /CharStrings get /Agrave known} bdef
/FMSR {3 1 roll 1 index dup isroman {reencode} {pop pop} ifelse
  exch FMS} bdef
/csm {1 dpi2point div -1 dpi2point div scale neg translate
 dup landscapeMode eq {pop -90 rotate}
  {rotateMode eq {90 rotate} if} ifelse} bdef
% line types: solid, dotted, dashed, dotdash
/SO { [] 0 setdash } bdef
/DO { [.5 dpi2point mul 4 dpi2point mul] 0 setdash } bdef
/DA { [6 dpi2point mul] 0 setdash } bdef
/DD { [.5 dpi2point mul 4 dpi2point mul 6 dpi2point mul 4
  dpi2point mul] 0 setdash } bdef
% macros for lines and objects
/L {lineto stroke} bdef
/MP {3 1 roll moveto 1 sub {rlineto} repeat} bdef
/AP {{rlineto} repeat} bdef
/PDlw -1 def
/W {/PDlw currentlinewidth def setlinewidth} def
/PP {closepath eofill} bdef
/DP {closepath stroke} bdef
/MR {4 -2 roll moveto dup  0 exch rlineto exch 0 rlineto
  neg 0 exch rlineto closepath} bdef
/FR {MR stroke} bdef
/PR {MR fill} bdef
/L1i {{currentfile picstr readhexstring pop} image} bdef
/tMatrix matrix def
/MakeOval {newpath tMatrix currentmatrix pop translate scale
0 0 1 0 360 arc tMatrix setmatrix} bdef
/FO {MakeOval stroke} bdef
/PO {MakeOval fill} bdef
/PD {currentlinewidth 2 div 0 360 arc fill
   PDlw -1 eq not {PDlw w /PDlw -1 def} if} def
/FA {newpath tMatrix currentmatrix pop translate scale
  0 0 1 5 -2 roll arc tMatrix setmatrix stroke} bdef
/PA {newpath tMatrix currentmatrix pop	translate 0 0 moveto scale
  0 0 1 5 -2 roll arc closepath tMatrix setmatrix fill} bdef
/FAn {newpath tMatrix currentmatrix pop translate scale
  0 0 1 5 -2 roll arcn tMatrix setmatrix stroke} bdef
/PAn {newpath tMatrix currentmatrix pop translate 0 0 moveto scale
  0 0 1 5 -2 roll arcn closepath tMatrix setmatrix fill} bdef
/vradius 0 def /hradius 0 def /lry 0 def
/lrx 0 def /uly 0 def /ulx 0 def /rad 0 def
/MRR {/vradius xdef /hradius xdef /lry xdef /lrx xdef /uly xdef
  /ulx xdef newpath tMatrix currentmatrix pop ulx hradius add uly
  vradius add translate hradius vradius scale 0 0 1 180 270 arc 
  tMatrix setmatrix lrx hradius sub uly vradius add translate
  hradius vradius scale 0 0 1 270 360 arc tMatrix setmatrix
  lrx hradius sub lry vradius sub translate hradius vradius scale
  0 0 1 0 90 arc tMatrix setmatrix ulx hradius add lry vradius sub
  translate hradius vradius scale 0 0 1 90 180 arc tMatrix setmatrix
  closepath} bdef
/FRR {MRR stroke } bdef
/PRR {MRR fill } bdef
/MlrRR {/lry xdef /lrx xdef /uly xdef /ulx xdef /rad lry uly sub 2 div def
  newpath tMatrix currentmatrix pop ulx rad add uly rad add translate
  rad rad scale 0 0 1 90 270 arc tMatrix setmatrix lrx rad sub lry rad
  sub translate rad rad scale 0 0 1 270 90 arc tMatrix setmatrix
  closepath} bdef
/FlrRR {MlrRR stroke } bdef
/PlrRR {MlrRR fill } bdef
/MtbRR {/lry xdef /lrx xdef /uly xdef /ulx xdef /rad lrx ulx sub 2 div def
  newpath tMatrix currentmatrix pop ulx rad add uly rad add translate
  rad rad scale 0 0 1 180 360 arc tMatrix setmatrix lrx rad sub lry rad
  sub translate rad rad scale 0 0 1 0 180 arc tMatrix setmatrix
  closepath} bdef
/FtbRR {MtbRR stroke } bdef
/PtbRR {MtbRR fill } bdef
/stri 6 array def /dtri 6 array def
/smat 6 array def /dmat 6 array def
/tmat1 6 array def /tmat2 6 array def /dif 3 array def
/asub {/ind2 exch def /ind1 exch def dup dup
  ind1 get exch ind2 get sub exch } bdef
/tri_to_matrix {
  2 0 asub 3 1 asub 4 0 asub 5 1 asub
  dup 0 get exch 1 get 7 -1 roll astore } bdef
/compute_transform {
  dmat dtri tri_to_matrix tmat1 invertmatrix 
  smat stri tri_to_matrix tmat2 concatmatrix } bdef
/ds {stri astore pop} bdef
/dt {dtri astore pop} bdef
/db {2 copy /cols xdef /rows xdef mul dup 3 mul string
  currentfile 
  3 index 0 eq {/ASCIIHexDecode filter}
  {/ASCII85Decode filter 3 index 2 eq {/RunLengthDecode filter} if }
  ifelse exch readstring pop
  dup 0 3 index getinterval /rbmap xdef
  dup 2 index dup getinterval /gbmap xdef
  1 index dup 2 mul exch getinterval /bbmap xdef pop pop}bdef
/it {gs np dtri aload pop moveto lineto lineto cp c
  cols rows 8 compute_transform 
  rbmap gbmap bbmap true 3 colorimage gr}bdef
/il {newpath moveto lineto stroke}bdef
currentdict end def
%%EndProlog

%%BeginSetup
MathWorks begin

0 cap

end
%%EndSetup

%%Page: 1 1
%%BeginPageSetup
%%PageBoundingBox:    92   266   501   574
MathWorks begin
bpage
%%EndPageSetup

%%BeginObject: obj1
bplot

/dpi2point 12 def
portraitMode 1104 6888 csm

    0     0  4916  3688 rc
85 dict begin %Colortable dictionary
/c0 { 0.000000 0.000000 0.000000 sr} bdef
/c1 { 1.000000 1.000000 1.000000 sr} bdef
/c2 { 0.900000 0.000000 0.000000 sr} bdef
/c3 { 0.000000 0.820000 0.000000 sr} bdef
/c4 { 0.000000 0.000000 0.800000 sr} bdef
/c5 { 0.910000 0.820000 0.320000 sr} bdef
/c6 { 1.000000 0.260000 0.820000 sr} bdef
/c7 { 0.000000 0.820000 0.820000 sr} bdef
c0
1 j
1 sg
   0    0 4917 3689 rf
6 w
0 3005 3810 0 0 -3005 639 3282 4 MP
PP
-3810 0 0 3005 3810 0 0 -3005 639 3282 5 MP stroke
4 w
DO
SO
6 w
0 sg
 639 3282 mt 4449 3282 L
 639  277 mt 4449  277 L
 639 3282 mt  639  277 L
4449 3282 mt 4449  277 L
 639 3282 mt 4449 3282 L
 639 3282 mt  639  277 L
1057 3282 mt 1057 3243 L
1057  277 mt 1057  315 L
%%IncludeResource: font Helvetica
/Helvetica /ISOLatin1Encoding 120 FMSR

 887 3427 mt 
(-100) s
1804 3282 mt 1804 3243 L
1804  277 mt 1804  315 L
1668 3427 mt 
(-50) s
2551 3282 mt 2551 3243 L
2551  277 mt 2551  315 L
2518 3427 mt 
(0) s
3298 3282 mt 3298 3243 L
3298  277 mt 3298  315 L
3232 3427 mt 
(50) s
4045 3282 mt 4045 3243 L
4045  277 mt 4045  315 L
3945 3427 mt 
(100) s
 639 3282 mt  677 3282 L
4449 3282 mt 4410 3282 L
 538 3326 mt 
(0) s
 639 2906 mt  677 2906 L
4449 2906 mt 4410 2906 L
 538 2950 mt 
(1) s
 639 2530 mt  677 2530 L
4449 2530 mt 4410 2530 L
 538 2574 mt 
(2) s
 639 2155 mt  677 2155 L
4449 2155 mt 4410 2155 L
 538 2199 mt 
(3) s
 639 1779 mt  677 1779 L
4449 1779 mt 4410 1779 L
 538 1823 mt 
(4) s
 639 1403 mt  677 1403 L
4449 1403 mt 4410 1403 L
 538 1447 mt 
(5) s
 639 1028 mt  677 1028 L
4449 1028 mt 4410 1028 L
 538 1072 mt 
(6) s
 639  652 mt  677  652 L
4449  652 mt 4410  652 L
 538  696 mt 
(7) s
 639  277 mt  677  277 L
4449  277 mt 4410  277 L
 538  321 mt 
(8) s
 639  223 mt 
(x 10) s
%%IncludeResource: font Helvetica
/Helvetica /ISOLatin1Encoding 80 FMSR

 865  149 mt 
(4) s
 639 3282 mt 4449 3282 L
 639  277 mt 4449  277 L
 639 3282 mt  639  277 L
4449 3282 mt 4449  277 L
gs 639 277 3811 3006 rc
/c8 { 0.000000 0.000000 1.000000 sr} bdef
c8
15 0 15 0 15 0 15 0 15 0 15 0 15 0 15 -1 
15 1 15 0 15 0 15 0 15 0 15 0 15 0 15 0 
14 0 15 0 15 0 15 0 15 0 15 0 15 0 15 0 
15 0 15 0 15 0 15 0 15 0 15 0 15 0 15 0 
15 0 14 0 15 0 15 0 15 0 15 0 15 0 15 0 
15 1 15 0 15 -1 15 1 15 0 15 0 15 0 15 0 
15 0 15 0 14 1 15 -1 15 1 15 0 15 0 15 0 
15 0 15 0 15 0 15 0 15 0 15 1 15 0 15 0 
15 0 15 1 15 -1 14 1 15 1 15 -1 15 1 15 0 
15 0 15 1 15 1 15 1 15 0 15 0 15 1 15 1 
15 1 15 -2 15 2 15 1 14 0 15 2 15 1 15 1 
15 1 15 0 15 2 15 0 15 0 15 5 15 -1 15 2 
15 4 15 3 15 2 15 3 15 3 14 2 15 3 15 4 
15 7 15 3 15 4 15 2 15 13 15 3 15 12 15 15 
15 5 15 16 15 15 15 25 15 19 15 27 14 43 15 51 
15 68 15 94 15 156 15 200 15 386 15 721 15 1049 15 -1055 
15 -728 15 -355 15 -241 15 -130 15 -104 15 -69 15 -46 14 -38 
15 -30 15 -20 15 -20 15 -16 15 -12 15 -16 15 -9 15 -11 
15 -8 15 -7 15 -6 15 -7 15 -4 15 -5 15 -3 15 -1 
14 -1 15 -6 15 -1 15 -2 15 -2 15 -3 15 -2 15 -2 
15 -1 15 -3 15 -1 15 -1 15 -1 15 -1 15 0 15 -1 
15 0 14 -2 15 -1 15 0 15 -1 15 1 15 -2 15 0 
15 -1 15 0 15 -1 15 -1 15 0 15 0 15 -1 15 0 
15 0 15 -1 14 0 15 0 15 0 15 -1 15 0 15 0 
15 0 15 0 15 0 15 -1 15 0 15 -1 15 0 15 1 
15 0 15 -1 15 0 14 0 15 0 15 0 15 0 15 0 
15 -1 15 1 15 -1 15 1 15 -1 15 1 15 -1 15 1 
15 -1 15 0 15 0 15 0 14 0 15 0 15 0 15 0 
15 0 15 0 15 0 15 0 15 0 15 0 15 0 15 0 
15 0 15 0 15 0 15 0 15 0 14 0 15 0 15 0 
15 0 15 0 15 0 15 0 15 0 15 0 15 0 15 0 
15 0 15 0 15 0 15 -1 15 1 15 0 14 0 639 3281 256 MP stroke
gr

c8

end %%Color Dict

eplot
%%EndObject

epage
end

showpage

%%Trailer
%%EOF
