%!PS-Adobe-3.0 EPSF-3.0
%%Creator: MATLAB, The MathWorks, Inc. Version 7.14.0.739 (R2012a). Operating System: Linux 4.2.3-1-ARCH #1 SMP PREEMPT Sat Oct 3 18:52:50 CEST 2015 x86_64.
%%Title: /home/globalbus/Uczelnia/Magisterka/hilbert3d.eps
%%CreationDate: 10/25/2015  02:33:20
%%DocumentNeededFonts: Helvetica
%%DocumentProcessColors: Cyan Magenta Yellow Black
%%LanguageLevel: 2
%%Pages: 1
%%BoundingBox:    72   252   520   589
%%EndComments

%%BeginProlog
% MathWorks dictionary
/MathWorks 160 dict begin
% definition operators
/bdef {bind def} bind def
/ldef {load def} bind def
/xdef {exch def} bdef
/xstore {exch store} bdef
% operator abbreviations
/c  /clip ldef
/cc /concat ldef
/cp /closepath ldef
/gr /grestore ldef
/gs /gsave ldef
/mt /moveto ldef
/np /newpath ldef
/cm /currentmatrix ldef
/sm /setmatrix ldef
/rm /rmoveto ldef
/rl /rlineto ldef
/s {show newpath} bdef
/sc {setcmykcolor} bdef
/sr /setrgbcolor ldef
/sg /setgray ldef
/w /setlinewidth ldef
/j /setlinejoin ldef
/cap /setlinecap ldef
/rc {rectclip} bdef
/rf {rectfill} bdef
% page state control
/pgsv () def
/bpage {/pgsv save def} bdef
/epage {pgsv restore} bdef
/bplot /gsave ldef
/eplot {stroke grestore} bdef
% orientation switch
/portraitMode 0 def /landscapeMode 1 def /rotateMode 2 def
% coordinate system mappings
/dpi2point 0 def
% font control
/FontSize 0 def
/FMS {/FontSize xstore findfont [FontSize 0 0 FontSize neg 0 0]
  makefont setfont} bdef
/reencode {exch dup where {pop load} {pop StandardEncoding} ifelse
  exch dup 3 1 roll findfont dup length dict begin
  { 1 index /FID ne {def}{pop pop} ifelse } forall
  /Encoding exch def currentdict end definefont pop} bdef
/isroman {findfont /CharStrings get /Agrave known} bdef
/FMSR {3 1 roll 1 index dup isroman {reencode} {pop pop} ifelse
  exch FMS} bdef
/csm {1 dpi2point div -1 dpi2point div scale neg translate
 dup landscapeMode eq {pop -90 rotate}
  {rotateMode eq {90 rotate} if} ifelse} bdef
% line types: solid, dotted, dashed, dotdash
/SO { [] 0 setdash } bdef
/DO { [.5 dpi2point mul 4 dpi2point mul] 0 setdash } bdef
/DA { [6 dpi2point mul] 0 setdash } bdef
/DD { [.5 dpi2point mul 4 dpi2point mul 6 dpi2point mul 4
  dpi2point mul] 0 setdash } bdef
% macros for lines and objects
/L {lineto stroke} bdef
/MP {3 1 roll moveto 1 sub {rlineto} repeat} bdef
/AP {{rlineto} repeat} bdef
/PDlw -1 def
/W {/PDlw currentlinewidth def setlinewidth} def
/PP {closepath eofill} bdef
/DP {closepath stroke} bdef
/MR {4 -2 roll moveto dup  0 exch rlineto exch 0 rlineto
  neg 0 exch rlineto closepath} bdef
/FR {MR stroke} bdef
/PR {MR fill} bdef
/L1i {{currentfile picstr readhexstring pop} image} bdef
/tMatrix matrix def
/MakeOval {newpath tMatrix currentmatrix pop translate scale
0 0 1 0 360 arc tMatrix setmatrix} bdef
/FO {MakeOval stroke} bdef
/PO {MakeOval fill} bdef
/PD {currentlinewidth 2 div 0 360 arc fill
   PDlw -1 eq not {PDlw w /PDlw -1 def} if} def
/FA {newpath tMatrix currentmatrix pop translate scale
  0 0 1 5 -2 roll arc tMatrix setmatrix stroke} bdef
/PA {newpath tMatrix currentmatrix pop	translate 0 0 moveto scale
  0 0 1 5 -2 roll arc closepath tMatrix setmatrix fill} bdef
/FAn {newpath tMatrix currentmatrix pop translate scale
  0 0 1 5 -2 roll arcn tMatrix setmatrix stroke} bdef
/PAn {newpath tMatrix currentmatrix pop translate 0 0 moveto scale
  0 0 1 5 -2 roll arcn closepath tMatrix setmatrix fill} bdef
/vradius 0 def /hradius 0 def /lry 0 def
/lrx 0 def /uly 0 def /ulx 0 def /rad 0 def
/MRR {/vradius xdef /hradius xdef /lry xdef /lrx xdef /uly xdef
  /ulx xdef newpath tMatrix currentmatrix pop ulx hradius add uly
  vradius add translate hradius vradius scale 0 0 1 180 270 arc 
  tMatrix setmatrix lrx hradius sub uly vradius add translate
  hradius vradius scale 0 0 1 270 360 arc tMatrix setmatrix
  lrx hradius sub lry vradius sub translate hradius vradius scale
  0 0 1 0 90 arc tMatrix setmatrix ulx hradius add lry vradius sub
  translate hradius vradius scale 0 0 1 90 180 arc tMatrix setmatrix
  closepath} bdef
/FRR {MRR stroke } bdef
/PRR {MRR fill } bdef
/MlrRR {/lry xdef /lrx xdef /uly xdef /ulx xdef /rad lry uly sub 2 div def
  newpath tMatrix currentmatrix pop ulx rad add uly rad add translate
  rad rad scale 0 0 1 90 270 arc tMatrix setmatrix lrx rad sub lry rad
  sub translate rad rad scale 0 0 1 270 90 arc tMatrix setmatrix
  closepath} bdef
/FlrRR {MlrRR stroke } bdef
/PlrRR {MlrRR fill } bdef
/MtbRR {/lry xdef /lrx xdef /uly xdef /ulx xdef /rad lrx ulx sub 2 div def
  newpath tMatrix currentmatrix pop ulx rad add uly rad add translate
  rad rad scale 0 0 1 180 360 arc tMatrix setmatrix lrx rad sub lry rad
  sub translate rad rad scale 0 0 1 0 180 arc tMatrix setmatrix
  closepath} bdef
/FtbRR {MtbRR stroke } bdef
/PtbRR {MtbRR fill } bdef
/stri 6 array def /dtri 6 array def
/smat 6 array def /dmat 6 array def
/tmat1 6 array def /tmat2 6 array def /dif 3 array def
/asub {/ind2 exch def /ind1 exch def dup dup
  ind1 get exch ind2 get sub exch } bdef
/tri_to_matrix {
  2 0 asub 3 1 asub 4 0 asub 5 1 asub
  dup 0 get exch 1 get 7 -1 roll astore } bdef
/compute_transform {
  dmat dtri tri_to_matrix tmat1 invertmatrix 
  smat stri tri_to_matrix tmat2 concatmatrix } bdef
/ds {stri astore pop} bdef
/dt {dtri astore pop} bdef
/db {2 copy /cols xdef /rows xdef mul dup 3 mul string
  currentfile 
  3 index 0 eq {/ASCIIHexDecode filter}
  {/ASCII85Decode filter 3 index 2 eq {/RunLengthDecode filter} if }
  ifelse exch readstring pop
  dup 0 3 index getinterval /rbmap xdef
  dup 2 index dup getinterval /gbmap xdef
  1 index dup 2 mul exch getinterval /bbmap xdef pop pop}bdef
/it {gs np dtri aload pop moveto lineto lineto cp c
  cols rows 8 compute_transform 
  rbmap gbmap bbmap true 3 colorimage gr}bdef
/il {newpath moveto lineto stroke}bdef
currentdict end def
%%EndProlog

%%BeginSetup
MathWorks begin

0 cap

end
%%EndSetup

%%Page: 1 1
%%BeginPageSetup
%%PageBoundingBox:    72   252   520   589
MathWorks begin
bpage
%%EndPageSetup

%%BeginObject: obj1
bplot

/dpi2point 12 def
portraitMode 0864 7068 csm

    0     0  5386  4034 rc
85 dict begin %Colortable dictionary
/c0 { 0.000000 0.000000 0.000000 sr} bdef
/c1 { 1.000000 1.000000 1.000000 sr} bdef
/c2 { 0.900000 0.000000 0.000000 sr} bdef
/c3 { 0.000000 0.820000 0.000000 sr} bdef
/c4 { 0.000000 0.000000 0.800000 sr} bdef
/c5 { 0.910000 0.820000 0.320000 sr} bdef
/c6 { 1.000000 0.260000 0.820000 sr} bdef
/c7 { 0.000000 0.820000 0.820000 sr} bdef
c0
1 j
1 sg
   0    0 5387 4035 rf
6 w
0 1817 -1812 -833 0 -1816 4873 2951 4 MP
PP
1812 832 0 1817 -1812 -833 0 -1816 4873 2951 5 MP stroke
1812 832 2362 -638 -1813 -832 2512 3589 4 MP
PP
-2361 638 1812 832 2362 -638 -1813 -832 2512 3589 5 MP stroke
0 1817 2362 -639 0 -1816 699 2757 4 MP
PP
-2362 638 0 1817 2362 -639 0 -1816 699 2757 5 MP stroke
4 w
DO
SO
6 w
0 sg
2512 3589 mt 4873 2951 L
2512 3589 mt  699 2757 L
 699 2757 mt  699  941 L
2512 3589 mt 2567 3615 L
%%IncludeResource: font Helvetica
/Helvetica /ISOLatin1Encoding 120 FMSR

2599 3740 mt 
(-4) s
3102 3430 mt 3158 3455 L
3189 3581 mt 
(-2) s
3693 3270 mt 3748 3296 L
3780 3421 mt 
(0) s
4283 3111 mt 4339 3136 L
4370 3262 mt 
(2) s
4873 2951 mt 4929 2977 L
4960 3102 mt 
(4) s
2512 3589 mt 2453 3605 L
2283 3725 mt 
(-4) s
2059 3381 mt 2000 3397 L
1830 3517 mt 
(-2) s
1606 3173 mt 1547 3189 L
1447 3309 mt 
(0) s
1153 2965 mt 1094 2981 L
 994 3101 mt 
(2) s
 699 2757 mt  640 2773 L
 541 2893 mt 
(4) s
 699 2757 mt  644 2732 L
 477 2762 mt 
(-3) s
 699 2455 mt  644 2429 L
 477 2459 mt 
(-2) s
 699 2152 mt  644 2126 L
 477 2156 mt 
(-1) s
 699 1849 mt  644 1824 L
 547 1853 mt 
(0) s
 699 1546 mt  644 1521 L
 547 1551 mt 
(1) s
 699 1244 mt  644 1218 L
 547 1248 mt 
(2) s
 699  941 mt  644  915 L
 547  945 mt 
(3) s
gs 699 302 4175 3288 rc
/c8 { 0.000000 0.000000 1.000000 sr} bdef
c8
4352 2927 mt 3899 2719 L
gr

c8
  36   36 4352 2927 FO
gs 699 302 4175 3288 rc
4352 2321 mt 4352 1716 L
gr

  36   36 4352 2321 FO
gs 699 302 4175 3288 rc
4352 1716 mt 3761 1875 L
gr

  36   36 4352 1716 FO
gs 699 302 4175 3288 rc
gr

  36   36 4352 1110 FO
gs 699 302 4175 3288 rc
3899 2719 mt 3899 2113 L
gr

  36   36 3899 2719 FO
gs 699 302 4175 3288 rc
3899 2113 mt 4352 2321 L
gr

  36   36 3899 2113 FO
gs 699 302 4175 3288 rc
3899 1508 mt 3899  902 L
gr

  36   36 3899 1508 FO
gs 699 302 4175 3288 rc
3446  694 mt 3446 1300 L
gr

  36   36 3446  694 FO
gs 699 302 4175 3288 rc
3899  902 mt 3308 1062 L
gr

  36   36 3899  902 FO
gs 699 302 4175 3288 rc
3446 1905 mt 3446 2511 L
gr

  36   36 3446 1905 FO
gs 699 302 4175 3288 rc
3761 2481 mt 3308 2273 L
gr

  36   36 3761 2481 FO
gs 699 302 4175 3288 rc
3761 3086 mt 4352 2927 L
gr

  36   36 3761 3086 FO
gs 699 302 4175 3288 rc
3761 1875 mt 3308 1667 L
gr

  36   36 3761 1875 FO
gs 699 302 4175 3288 rc
3761 1270 mt 4352 1110 L
gr

  36   36 3761 1270 FO
gs 699 302 4175 3288 rc
2993 1092 mt 2993 1697 L
gr

  36   36 2993 1092 FO
gs 699 302 4175 3288 rc
3446 1300 mt 2855 1459 L
gr

  36   36 3446 1300 FO
gs 699 302 4175 3288 rc
3446 2511 mt 2993 2303 L
gr

  36   36 3446 2511 FO
gs 699 302 4175 3288 rc
3308 2273 mt 3308 2878 L
gr

  36   36 3308 2273 FO
gs 699 302 4175 3288 rc
3308 2878 mt 3761 3086 L
gr

  36   36 3308 2878 FO
gs 699 302 4175 3288 rc
3308 1667 mt 3899 1508 L
gr

  36   36 3308 1667 FO
gs 699 302 4175 3288 rc
3308 1062 mt 3761 1270 L
gr

  36   36 3308 1062 FO
gs 699 302 4175 3288 rc
3171 2035 mt 3171 1430 L
gr

  36   36 3171 2035 FO
gs 699 302 4175 3288 rc
2855 1459 mt 2402 1251 L
gr

  36   36 2855 1459 FO
gs 699 302 4175 3288 rc
2718 1222 mt 2718 1827 L
gr

  36   36 2718 1222 FO
gs 699 302 4175 3288 rc
3171 1430 mt 2580 1589 L
gr

  36   36 3171 1430 FO
gs 699 302 4175 3288 rc
3171 3246 mt 2718 3038 L
gr

  36   36 3171 3246 FO
gs 699 302 4175 3288 rc
3171 2641 mt 3761 2481 L
gr

  36   36 3171 2641 FO
gs 699 302 4175 3288 rc
2993  486 mt 2402  646 L
gr

  36   36 2993  486 FO
gs 699 302 4175 3288 rc
2993 1697 mt 3446 1905 L
gr

  36   36 2993 1697 FO
gs 699 302 4175 3288 rc
2993 2303 mt 2402 2462 L
gr

  36   36 2993 2303 FO
gs 699 302 4175 3288 rc
2855  854 mt 3446  694 L
gr

  36   36 2855  854 FO
gs 699 302 4175 3288 rc
2855 2670 mt 2855 2065 L
gr

  36   36 2855 2670 FO
gs 699 302 4175 3288 rc
2855 2065 mt 2402 1857 L
gr

  36   36 2855 2065 FO
gs 699 302 4175 3288 rc
2718 1827 mt 3171 2035 L
gr

  36   36 2718 1827 FO
gs 699 302 4175 3288 rc
2718 3038 mt 2718 2433 L
gr

  36   36 2718 3038 FO
gs 699 302 4175 3288 rc
2718 2433 mt 3171 2641 L
gr

  36   36 2718 2433 FO
gs 699 302 4175 3288 rc
2580 1589 mt 2580 2195 L
gr

  36   36 2580 1589 FO
gs 699 302 4175 3288 rc
2580 2195 mt 2580 2800 L
gr

  36   36 2580 2195 FO
gs 699 302 4175 3288 rc
2265 2225 mt 2265 2830 L
gr

  36   36 2265 2225 FO
gs 699 302 4175 3288 rc
2580 2800 mt 2127 2592 L
gr

  36   36 2580 2800 FO
gs 699 302 4175 3288 rc
2580 3406 mt 3171 3246 L
gr

  36   36 2580 3406 FO
gs 699 302 4175 3288 rc
2402  646 mt 2855  854 L
gr

  36   36 2402  646 FO
gs 699 302 4175 3288 rc
2402 1251 mt 2993 1092 L
gr

  36   36 2402 1251 FO
gs 699 302 4175 3288 rc
2402 2462 mt 2855 2670 L
gr

  36   36 2402 2462 FO
gs 699 302 4175 3288 rc
2402 1857 mt 1812 2017 L
gr

  36   36 2402 1857 FO
gs 699 302 4175 3288 rc
2265 2830 mt 1812 2622 L
gr

  36   36 2265 2830 FO
gs 699 302 4175 3288 rc
2265 1619 mt 2265 1014 L
gr

  36   36 2265 1619 FO
gs 699 302 4175 3288 rc
1812  806 mt 1812 1411 L
gr

  36   36 1812  806 FO
gs 699 302 4175 3288 rc
2265 1014 mt 1674 1173 L
gr

  36   36 2265 1014 FO
gs 699 302 4175 3288 rc
2127 1987 mt 2127 1381 L
gr

  36   36 2127 1987 FO
gs 699 302 4175 3288 rc
2127 1381 mt 2718 1222 L
gr

  36   36 2127 1381 FO
gs 699 302 4175 3288 rc
2127 2592 mt 2127 3198 L
gr

  36   36 2127 2592 FO
gs 699 302 4175 3288 rc
2127 3198 mt 2580 3406 L
gr

  36   36 2127 3198 FO
gs 699 302 4175 3288 rc
1812 2017 mt 2265 2225 L
gr

  36   36 1812 2017 FO
gs 699 302 4175 3288 rc
1812 2622 mt 1221 2782 L
gr

  36   36 1812 2622 FO
gs 699 302 4175 3288 rc
1812 1411 mt 2265 1619 L
gr

  36   36 1812 1411 FO
gs 699 302 4175 3288 rc
1674 2990 mt 1674 2384 L
gr

  36   36 1674 2990 FO
gs 699 302 4175 3288 rc
1674 2384 mt 1221 2176 L
gr

  36   36 1674 2384 FO
gs 699 302 4175 3288 rc
1674 1173 mt 1674 1779 L
gr

  36   36 1674 1173 FO
gs 699 302 4175 3288 rc
1674 1779 mt 2127 1987 L
gr

  36   36 1674 1779 FO
gs 699 302 4175 3288 rc
1221 2782 mt 1674 2990 L
gr

  36   36 1221 2782 FO
gs 699 302 4175 3288 rc
1221 2176 mt 1221 1571 L
gr

  36   36 1221 2176 FO
gs 699 302 4175 3288 rc
1221 1571 mt 1221  965 L
gr

  36   36 1221 1571 FO
gs 699 302 4175 3288 rc
1221  965 mt 1812  806 L
gr

  36   36 1221  965 FO
gs 699 302 4175 3288 rc
gr


end %%Color Dict

eplot
%%EndObject

epage
end

showpage

%%Trailer
%%EOF
