%!PS-Adobe-3.0 EPSF-3.0
%%Creator: MATLAB, The MathWorks, Inc. Version 7.14.0.739 (R2012a). Operating System: Linux 4.1.1-gentoo-r1-globalbus #2 SMP Thu Jul 23 21:26:56 CEST 2015 x86_64.
%%Title: /home/globalbus/Uczelnia/Magisterka/docs/graphics/lineScan2.eps
%%CreationDate: 08/03/2015  04:57:38
%%DocumentNeededFonts: Helvetica
%%DocumentProcessColors: Cyan Magenta Yellow Black
%%LanguageLevel: 2
%%Pages: 1
%%BoundingBox:    73   267   521   572
%%EndComments

%%BeginProlog
% MathWorks dictionary
/MathWorks 160 dict begin
% definition operators
/bdef {bind def} bind def
/ldef {load def} bind def
/xdef {exch def} bdef
/xstore {exch store} bdef
% operator abbreviations
/c  /clip ldef
/cc /concat ldef
/cp /closepath ldef
/gr /grestore ldef
/gs /gsave ldef
/mt /moveto ldef
/np /newpath ldef
/cm /currentmatrix ldef
/sm /setmatrix ldef
/rm /rmoveto ldef
/rl /rlineto ldef
/s {show newpath} bdef
/sc {setcmykcolor} bdef
/sr /setrgbcolor ldef
/sg /setgray ldef
/w /setlinewidth ldef
/j /setlinejoin ldef
/cap /setlinecap ldef
/rc {rectclip} bdef
/rf {rectfill} bdef
% page state control
/pgsv () def
/bpage {/pgsv save def} bdef
/epage {pgsv restore} bdef
/bplot /gsave ldef
/eplot {stroke grestore} bdef
% orientation switch
/portraitMode 0 def /landscapeMode 1 def /rotateMode 2 def
% coordinate system mappings
/dpi2point 0 def
% font control
/FontSize 0 def
/FMS {/FontSize xstore findfont [FontSize 0 0 FontSize neg 0 0]
  makefont setfont} bdef
/reencode {exch dup where {pop load} {pop StandardEncoding} ifelse
  exch dup 3 1 roll findfont dup length dict begin
  { 1 index /FID ne {def}{pop pop} ifelse } forall
  /Encoding exch def currentdict end definefont pop} bdef
/isroman {findfont /CharStrings get /Agrave known} bdef
/FMSR {3 1 roll 1 index dup isroman {reencode} {pop pop} ifelse
  exch FMS} bdef
/csm {1 dpi2point div -1 dpi2point div scale neg translate
 dup landscapeMode eq {pop -90 rotate}
  {rotateMode eq {90 rotate} if} ifelse} bdef
% line types: solid, dotted, dashed, dotdash
/SO { [] 0 setdash } bdef
/DO { [.5 dpi2point mul 4 dpi2point mul] 0 setdash } bdef
/DA { [6 dpi2point mul] 0 setdash } bdef
/DD { [.5 dpi2point mul 4 dpi2point mul 6 dpi2point mul 4
  dpi2point mul] 0 setdash } bdef
% macros for lines and objects
/L {lineto stroke} bdef
/MP {3 1 roll moveto 1 sub {rlineto} repeat} bdef
/AP {{rlineto} repeat} bdef
/PDlw -1 def
/W {/PDlw currentlinewidth def setlinewidth} def
/PP {closepath eofill} bdef
/DP {closepath stroke} bdef
/MR {4 -2 roll moveto dup  0 exch rlineto exch 0 rlineto
  neg 0 exch rlineto closepath} bdef
/FR {MR stroke} bdef
/PR {MR fill} bdef
/L1i {{currentfile picstr readhexstring pop} image} bdef
/tMatrix matrix def
/MakeOval {newpath tMatrix currentmatrix pop translate scale
0 0 1 0 360 arc tMatrix setmatrix} bdef
/FO {MakeOval stroke} bdef
/PO {MakeOval fill} bdef
/PD {currentlinewidth 2 div 0 360 arc fill
   PDlw -1 eq not {PDlw w /PDlw -1 def} if} def
/FA {newpath tMatrix currentmatrix pop translate scale
  0 0 1 5 -2 roll arc tMatrix setmatrix stroke} bdef
/PA {newpath tMatrix currentmatrix pop	translate 0 0 moveto scale
  0 0 1 5 -2 roll arc closepath tMatrix setmatrix fill} bdef
/FAn {newpath tMatrix currentmatrix pop translate scale
  0 0 1 5 -2 roll arcn tMatrix setmatrix stroke} bdef
/PAn {newpath tMatrix currentmatrix pop translate 0 0 moveto scale
  0 0 1 5 -2 roll arcn closepath tMatrix setmatrix fill} bdef
/vradius 0 def /hradius 0 def /lry 0 def
/lrx 0 def /uly 0 def /ulx 0 def /rad 0 def
/MRR {/vradius xdef /hradius xdef /lry xdef /lrx xdef /uly xdef
  /ulx xdef newpath tMatrix currentmatrix pop ulx hradius add uly
  vradius add translate hradius vradius scale 0 0 1 180 270 arc 
  tMatrix setmatrix lrx hradius sub uly vradius add translate
  hradius vradius scale 0 0 1 270 360 arc tMatrix setmatrix
  lrx hradius sub lry vradius sub translate hradius vradius scale
  0 0 1 0 90 arc tMatrix setmatrix ulx hradius add lry vradius sub
  translate hradius vradius scale 0 0 1 90 180 arc tMatrix setmatrix
  closepath} bdef
/FRR {MRR stroke } bdef
/PRR {MRR fill } bdef
/MlrRR {/lry xdef /lrx xdef /uly xdef /ulx xdef /rad lry uly sub 2 div def
  newpath tMatrix currentmatrix pop ulx rad add uly rad add translate
  rad rad scale 0 0 1 90 270 arc tMatrix setmatrix lrx rad sub lry rad
  sub translate rad rad scale 0 0 1 270 90 arc tMatrix setmatrix
  closepath} bdef
/FlrRR {MlrRR stroke } bdef
/PlrRR {MlrRR fill } bdef
/MtbRR {/lry xdef /lrx xdef /uly xdef /ulx xdef /rad lrx ulx sub 2 div def
  newpath tMatrix currentmatrix pop ulx rad add uly rad add translate
  rad rad scale 0 0 1 180 360 arc tMatrix setmatrix lrx rad sub lry rad
  sub translate rad rad scale 0 0 1 0 180 arc tMatrix setmatrix
  closepath} bdef
/FtbRR {MtbRR stroke } bdef
/PtbRR {MtbRR fill } bdef
/stri 6 array def /dtri 6 array def
/smat 6 array def /dmat 6 array def
/tmat1 6 array def /tmat2 6 array def /dif 3 array def
/asub {/ind2 exch def /ind1 exch def dup dup
  ind1 get exch ind2 get sub exch } bdef
/tri_to_matrix {
  2 0 asub 3 1 asub 4 0 asub 5 1 asub
  dup 0 get exch 1 get 7 -1 roll astore } bdef
/compute_transform {
  dmat dtri tri_to_matrix tmat1 invertmatrix 
  smat stri tri_to_matrix tmat2 concatmatrix } bdef
/ds {stri astore pop} bdef
/dt {dtri astore pop} bdef
/db {2 copy /cols xdef /rows xdef mul dup 3 mul string
  currentfile 
  3 index 0 eq {/ASCIIHexDecode filter}
  {/ASCII85Decode filter 3 index 2 eq {/RunLengthDecode filter} if }
  ifelse exch readstring pop
  dup 0 3 index getinterval /rbmap xdef
  dup 2 index dup getinterval /gbmap xdef
  1 index dup 2 mul exch getinterval /bbmap xdef pop pop}bdef
/it {gs np dtri aload pop moveto lineto lineto cp c
  cols rows 8 compute_transform 
  rbmap gbmap bbmap true 3 colorimage gr}bdef
/il {newpath moveto lineto stroke}bdef
currentdict end def
%%EndProlog

%%BeginSetup
MathWorks begin

0 cap

end
%%EndSetup

%%Page: 1 1
%%BeginPageSetup
%%PageBoundingBox:    73   267   521   572
MathWorks begin
bpage
%%EndPageSetup

%%BeginObject: obj1
bplot

/dpi2point 12 def
portraitMode 0876 6864 csm

    0     0  5376  3649 rc
85 dict begin %Colortable dictionary
/c0 { 0.000000 0.000000 0.000000 sr} bdef
/c1 { 1.000000 1.000000 1.000000 sr} bdef
/c2 { 0.900000 0.000000 0.000000 sr} bdef
/c3 { 0.000000 0.820000 0.000000 sr} bdef
/c4 { 0.000000 0.000000 0.800000 sr} bdef
/c5 { 0.910000 0.820000 0.320000 sr} bdef
/c6 { 1.000000 0.260000 0.820000 sr} bdef
/c7 { 0.000000 0.820000 0.820000 sr} bdef
c0
1 j
1 sg
   0    0 5377 3650 rf
6 w
0 2974 4166 0 0 -2974 699 3248 4 MP
PP
-4166 0 0 2974 4166 0 0 -2974 699 3248 5 MP stroke
4 w
DO
SO
6 w
0 sg
 699 3248 mt 4865 3248 L
 699  274 mt 4865  274 L
 699 3248 mt  699  274 L
4865 3248 mt 4865  274 L
 699 3248 mt 4865 3248 L
 699 3248 mt  699  274 L
 699 3248 mt  699 3206 L
 699  274 mt  699  315 L
%%IncludeResource: font Helvetica
/Helvetica /ISOLatin1Encoding 120 FMSR

 666 3393 mt 
(0) s
1161 3248 mt 1161 3206 L
1161  274 mt 1161  315 L
1128 3393 mt 
(1) s
1624 3248 mt 1624 3206 L
1624  274 mt 1624  315 L
1591 3393 mt 
(2) s
2087 3248 mt 2087 3206 L
2087  274 mt 2087  315 L
2054 3393 mt 
(3) s
2550 3248 mt 2550 3206 L
2550  274 mt 2550  315 L
2517 3393 mt 
(4) s
3013 3248 mt 3013 3206 L
3013  274 mt 3013  315 L
2980 3393 mt 
(5) s
3476 3248 mt 3476 3206 L
3476  274 mt 3476  315 L
3443 3393 mt 
(6) s
3939 3248 mt 3939 3206 L
3939  274 mt 3939  315 L
3906 3393 mt 
(7) s
4402 3248 mt 4402 3206 L
4402  274 mt 4402  315 L
4369 3393 mt 
(8) s
4865 3248 mt 4865 3206 L
4865  274 mt 4865  315 L
4832 3393 mt 
(9) s
 699 3248 mt  740 3248 L
4865 3248 mt 4823 3248 L
 598 3292 mt 
(0) s
 699 2917 mt  740 2917 L
4865 2917 mt 4823 2917 L
 598 2961 mt 
(1) s
 699 2587 mt  740 2587 L
4865 2587 mt 4823 2587 L
 598 2631 mt 
(2) s
 699 2256 mt  740 2256 L
4865 2256 mt 4823 2256 L
 598 2300 mt 
(3) s
 699 1926 mt  740 1926 L
4865 1926 mt 4823 1926 L
 598 1970 mt 
(4) s
 699 1595 mt  740 1595 L
4865 1595 mt 4823 1595 L
 598 1639 mt 
(5) s
 699 1265 mt  740 1265 L
4865 1265 mt 4823 1265 L
 598 1309 mt 
(6) s
 699  934 mt  740  934 L
4865  934 mt 4823  934 L
 598  978 mt 
(7) s
 699  604 mt  740  604 L
4865  604 mt 4823  604 L
 598  648 mt 
(8) s
 699  274 mt  740  274 L
4865  274 mt 4823  274 L
 598  318 mt 
(9) s
 699 3248 mt 4865 3248 L
 699  274 mt 4865  274 L
 699 3248 mt  699  274 L
4865 3248 mt 4865  274 L
gs 699 274 4167 2975 rc
/c8 { 0.000000 0.000000 1.000000 sr} bdef
c8
0 -330 0 -331 0 -330 0 -331 0 -330 0 -331 0 -330 463 2313 
0 -330 0 -331 0 -330 0 -331 0 -330 0 -331 0 -330 463 2313 
0 -330 0 -331 0 -330 0 -331 0 -330 0 -331 0 -330 463 2313 
0 -330 0 -331 0 -330 0 -331 0 -330 0 -331 0 -330 463 2313 
0 -330 0 -331 0 -330 0 -331 0 -330 0 -331 0 -330 463 2313 
0 -330 0 -331 0 -330 0 -331 0 -330 0 -331 0 -330 463 2313 
0 -330 0 -331 0 -330 0 -331 0 -330 0 -331 0 -330 463 2313 
0 -330 0 -331 0 -330 0 -331 0 -330 0 -331 0 -330 1161 2917 64 MP stroke
gr

c8
24 W
1161 2917 PD
24 W
1161 2587 PD
24 W
1161 2256 PD
24 W
1161 1926 PD
24 W
1161 1595 PD
24 W
1161 1265 PD
24 W
1161 934 PD
24 W
1161 604 PD
24 W
1624 2917 PD
24 W
1624 2587 PD
24 W
1624 2256 PD
24 W
1624 1926 PD
24 W
1624 1595 PD
24 W
1624 1265 PD
24 W
1624 934 PD
24 W
1624 604 PD
24 W
2087 2917 PD
24 W
2087 2587 PD
24 W
2087 2256 PD
24 W
2087 1926 PD
24 W
2087 1595 PD
24 W
2087 1265 PD
24 W
2087 934 PD
24 W
2087 604 PD
24 W
2550 2917 PD
24 W
2550 2587 PD
24 W
2550 2256 PD
24 W
2550 1926 PD
24 W
2550 1595 PD
24 W
2550 1265 PD
24 W
2550 934 PD
24 W
2550 604 PD
24 W
3013 2917 PD
24 W
3013 2587 PD
24 W
3013 2256 PD
24 W
3013 1926 PD
24 W
3013 1595 PD
24 W
3013 1265 PD
24 W
3013 934 PD
24 W
3013 604 PD
24 W
3476 2917 PD
24 W
3476 2587 PD
24 W
3476 2256 PD
24 W
3476 1926 PD
24 W
3476 1595 PD
24 W
3476 1265 PD
24 W
3476 934 PD
24 W
3476 604 PD
24 W
3939 2917 PD
24 W
3939 2587 PD
24 W
3939 2256 PD
24 W
3939 1926 PD
24 W
3939 1595 PD
24 W
3939 1265 PD
24 W
3939 934 PD
24 W
3939 604 PD
24 W
4402 2917 PD
24 W
4402 2587 PD
24 W
4402 2256 PD
24 W
4402 1926 PD
24 W
4402 1595 PD
24 W
4402 1265 PD
24 W
4402 934 PD
24 W
4402 604 PD
gs 699 274 4167 2975 rc
gr


end %%Color Dict

eplot
%%EndObject

epage
end

showpage

%%Trailer
%%EOF
