%!PS-Adobe-3.0 EPSF-3.0
%%Creator: MATLAB, The MathWorks, Inc. Version 7.14.0.739 (R2012a). Operating System: Linux 4.2.3-1-ARCH #1 SMP PREEMPT Sat Oct 3 18:52:50 CEST 2015 x86_64.
%%Title: /home/globalbus/Uczelnia/Magisterka/mixedNonLinear8RatioBW.eps
%%CreationDate: 10/28/2015  04:47:47
%%DocumentNeededFonts: Helvetica
%%DocumentProcessColors: Cyan Magenta Yellow Black
%%LanguageLevel: 2
%%Pages: 1
%%BoundingBox:    72   252   520   589
%%EndComments

%%BeginProlog
% MathWorks dictionary
/MathWorks 160 dict begin
% definition operators
/bdef {bind def} bind def
/ldef {load def} bind def
/xdef {exch def} bdef
/xstore {exch store} bdef
% operator abbreviations
/c  /clip ldef
/cc /concat ldef
/cp /closepath ldef
/gr /grestore ldef
/gs /gsave ldef
/mt /moveto ldef
/np /newpath ldef
/cm /currentmatrix ldef
/sm /setmatrix ldef
/rm /rmoveto ldef
/rl /rlineto ldef
/s {show newpath} bdef
/sc {setcmykcolor} bdef
/sr /setrgbcolor ldef
/sg /setgray ldef
/w /setlinewidth ldef
/j /setlinejoin ldef
/cap /setlinecap ldef
/rc {rectclip} bdef
/rf {rectfill} bdef
% page state control
/pgsv () def
/bpage {/pgsv save def} bdef
/epage {pgsv restore} bdef
/bplot /gsave ldef
/eplot {stroke grestore} bdef
% orientation switch
/portraitMode 0 def /landscapeMode 1 def /rotateMode 2 def
% coordinate system mappings
/dpi2point 0 def
% font control
/FontSize 0 def
/FMS {/FontSize xstore findfont [FontSize 0 0 FontSize neg 0 0]
  makefont setfont} bdef
/reencode {exch dup where {pop load} {pop StandardEncoding} ifelse
  exch dup 3 1 roll findfont dup length dict begin
  { 1 index /FID ne {def}{pop pop} ifelse } forall
  /Encoding exch def currentdict end definefont pop} bdef
/isroman {findfont /CharStrings get /Agrave known} bdef
/FMSR {3 1 roll 1 index dup isroman {reencode} {pop pop} ifelse
  exch FMS} bdef
/csm {1 dpi2point div -1 dpi2point div scale neg translate
 dup landscapeMode eq {pop -90 rotate}
  {rotateMode eq {90 rotate} if} ifelse} bdef
% line types: solid, dotted, dashed, dotdash
/SO { [] 0 setdash } bdef
/DO { [.5 dpi2point mul 4 dpi2point mul] 0 setdash } bdef
/DA { [6 dpi2point mul] 0 setdash } bdef
/DD { [.5 dpi2point mul 4 dpi2point mul 6 dpi2point mul 4
  dpi2point mul] 0 setdash } bdef
% macros for lines and objects
/L {lineto stroke} bdef
/MP {3 1 roll moveto 1 sub {rlineto} repeat} bdef
/AP {{rlineto} repeat} bdef
/PDlw -1 def
/W {/PDlw currentlinewidth def setlinewidth} def
/PP {closepath eofill} bdef
/DP {closepath stroke} bdef
/MR {4 -2 roll moveto dup  0 exch rlineto exch 0 rlineto
  neg 0 exch rlineto closepath} bdef
/FR {MR stroke} bdef
/PR {MR fill} bdef
/L1i {{currentfile picstr readhexstring pop} image} bdef
/tMatrix matrix def
/MakeOval {newpath tMatrix currentmatrix pop translate scale
0 0 1 0 360 arc tMatrix setmatrix} bdef
/FO {MakeOval stroke} bdef
/PO {MakeOval fill} bdef
/PD {currentlinewidth 2 div 0 360 arc fill
   PDlw -1 eq not {PDlw w /PDlw -1 def} if} def
/FA {newpath tMatrix currentmatrix pop translate scale
  0 0 1 5 -2 roll arc tMatrix setmatrix stroke} bdef
/PA {newpath tMatrix currentmatrix pop	translate 0 0 moveto scale
  0 0 1 5 -2 roll arc closepath tMatrix setmatrix fill} bdef
/FAn {newpath tMatrix currentmatrix pop translate scale
  0 0 1 5 -2 roll arcn tMatrix setmatrix stroke} bdef
/PAn {newpath tMatrix currentmatrix pop translate 0 0 moveto scale
  0 0 1 5 -2 roll arcn closepath tMatrix setmatrix fill} bdef
/vradius 0 def /hradius 0 def /lry 0 def
/lrx 0 def /uly 0 def /ulx 0 def /rad 0 def
/MRR {/vradius xdef /hradius xdef /lry xdef /lrx xdef /uly xdef
  /ulx xdef newpath tMatrix currentmatrix pop ulx hradius add uly
  vradius add translate hradius vradius scale 0 0 1 180 270 arc 
  tMatrix setmatrix lrx hradius sub uly vradius add translate
  hradius vradius scale 0 0 1 270 360 arc tMatrix setmatrix
  lrx hradius sub lry vradius sub translate hradius vradius scale
  0 0 1 0 90 arc tMatrix setmatrix ulx hradius add lry vradius sub
  translate hradius vradius scale 0 0 1 90 180 arc tMatrix setmatrix
  closepath} bdef
/FRR {MRR stroke } bdef
/PRR {MRR fill } bdef
/MlrRR {/lry xdef /lrx xdef /uly xdef /ulx xdef /rad lry uly sub 2 div def
  newpath tMatrix currentmatrix pop ulx rad add uly rad add translate
  rad rad scale 0 0 1 90 270 arc tMatrix setmatrix lrx rad sub lry rad
  sub translate rad rad scale 0 0 1 270 90 arc tMatrix setmatrix
  closepath} bdef
/FlrRR {MlrRR stroke } bdef
/PlrRR {MlrRR fill } bdef
/MtbRR {/lry xdef /lrx xdef /uly xdef /ulx xdef /rad lrx ulx sub 2 div def
  newpath tMatrix currentmatrix pop ulx rad add uly rad add translate
  rad rad scale 0 0 1 180 360 arc tMatrix setmatrix lrx rad sub lry rad
  sub translate rad rad scale 0 0 1 0 180 arc tMatrix setmatrix
  closepath} bdef
/FtbRR {MtbRR stroke } bdef
/PtbRR {MtbRR fill } bdef
/stri 6 array def /dtri 6 array def
/smat 6 array def /dmat 6 array def
/tmat1 6 array def /tmat2 6 array def /dif 3 array def
/asub {/ind2 exch def /ind1 exch def dup dup
  ind1 get exch ind2 get sub exch } bdef
/tri_to_matrix {
  2 0 asub 3 1 asub 4 0 asub 5 1 asub
  dup 0 get exch 1 get 7 -1 roll astore } bdef
/compute_transform {
  dmat dtri tri_to_matrix tmat1 invertmatrix 
  smat stri tri_to_matrix tmat2 concatmatrix } bdef
/ds {stri astore pop} bdef
/dt {dtri astore pop} bdef
/db {2 copy /cols xdef /rows xdef mul dup 3 mul string
  currentfile 
  3 index 0 eq {/ASCIIHexDecode filter}
  {/ASCII85Decode filter 3 index 2 eq {/RunLengthDecode filter} if }
  ifelse exch readstring pop
  dup 0 3 index getinterval /rbmap xdef
  dup 2 index dup getinterval /gbmap xdef
  1 index dup 2 mul exch getinterval /bbmap xdef pop pop}bdef
/it {gs np dtri aload pop moveto lineto lineto cp c
  cols rows 8 compute_transform 
  rbmap gbmap bbmap true 3 colorimage gr}bdef
/il {newpath moveto lineto stroke}bdef
currentdict end def
%%EndProlog

%%BeginSetup
MathWorks begin

0 cap

end
%%EndSetup

%%Page: 1 1
%%BeginPageSetup
%%PageBoundingBox:    72   252   520   589
MathWorks begin
bpage
%%EndPageSetup

%%BeginObject: obj1
bplot

/dpi2point 12 def
portraitMode 0864 7068 csm

    0     0  5386  4034 rc
85 dict begin %Colortable dictionary
/c0 { 0.000000 0.000000 0.000000 sr} bdef
/c1 { 1.000000 1.000000 1.000000 sr} bdef
/c2 { 0.900000 0.000000 0.000000 sr} bdef
/c3 { 0.000000 0.820000 0.000000 sr} bdef
/c4 { 0.000000 0.000000 0.800000 sr} bdef
/c5 { 0.910000 0.820000 0.320000 sr} bdef
/c6 { 1.000000 0.260000 0.820000 sr} bdef
/c7 { 0.000000 0.820000 0.820000 sr} bdef
c0
1 j
1 sg
   0    0 5387 4035 rf
6 w
0 3287 4174 0 0 -3287 700 3590 4 MP
PP
-4174 0 0 3287 4174 0 0 -3287 700 3590 5 MP stroke
4 w
DO
SO
6 w
0 sg
 700 3590 mt 4874 3590 L
 700  303 mt 4874  303 L
 700 3590 mt  700  303 L
4874 3590 mt 4874  303 L
 700 3590 mt 4874 3590 L
 700 3590 mt  700  303 L
1047 3590 mt 1047 3548 L
1047  302 mt 1047  344 L
%%IncludeResource: font Helvetica
/Helvetica /ISOLatin1Encoding 120 FMSR

1014 3735 mt 
(1) s
1743 3590 mt 1743 3548 L
1743  302 mt 1743  344 L
1710 3735 mt 
(2) s
2439 3590 mt 2439 3548 L
2439  302 mt 2439  344 L
2406 3735 mt 
(3) s
3134 3590 mt 3134 3548 L
3134  302 mt 3134  344 L
3101 3735 mt 
(4) s
3830 3590 mt 3830 3548 L
3830  302 mt 3830  344 L
3797 3735 mt 
(5) s
4526 3590 mt 4526 3548 L
4526  302 mt 4526  344 L
4493 3735 mt 
(6) s
 700 3590 mt  741 3590 L
4874 3590 mt 4832 3590 L
 599 3634 mt 
(0) s
 700 3120 mt  741 3120 L
4874 3120 mt 4832 3120 L
 499 3164 mt 
(0.1) s
 700 2650 mt  741 2650 L
4874 2650 mt 4832 2650 L
 499 2694 mt 
(0.2) s
 700 2181 mt  741 2181 L
4874 2181 mt 4832 2181 L
 499 2225 mt 
(0.3) s
 700 1711 mt  741 1711 L
4874 1711 mt 4832 1711 L
 499 1755 mt 
(0.4) s
 700 1242 mt  741 1242 L
4874 1242 mt 4832 1242 L
 499 1286 mt 
(0.5) s
 700  772 mt  741  772 L
4874  772 mt 4832  772 L
 499  816 mt 
(0.6) s
 700  302 mt  741  302 L
4874  302 mt 4832  302 L
 499  346 mt 
(0.7) s
 700 3590 mt 4874 3590 L
 700  303 mt 4874  303 L
 700 3590 mt  700  303 L
4874 3590 mt 4874  303 L
gs 700 303 4175 3288 rc
0 2056 159 0 0 -2056 868 3590 4 MP
PP
-159 0 0 2056 159 0 0 -2056 868 3590 5 MP stroke
0 2256 159 0 0 -2256 1564 3590 4 MP
PP
-159 0 0 2256 159 0 0 -2256 1564 3590 5 MP stroke
0 2203 159 0 0 -2203 2260 3590 4 MP
PP
-159 0 0 2203 159 0 0 -2203 2260 3590 5 MP stroke
0 2851 159 0 0 -2851 2955 3590 4 MP
PP
-159 0 0 2851 159 0 0 -2851 2955 3590 5 MP stroke
0 1859 159 0 0 -1859 3651 3590 4 MP
PP
-159 0 0 1859 159 0 0 -1859 3651 3590 5 MP stroke
0 2452 159 0 0 -2452 4347 3590 4 MP
PP
-159 0 0 2452 159 0 0 -2452 4347 3590 5 MP stroke
4174 0 700 3590 2 MP stroke
1 sg
0 2353 159 0 0 -2353 1067 3590 4 MP
PP
0 sg
-159 0 0 2353 159 0 0 -2353 1067 3590 5 MP stroke
1 sg
0 2625 159 0 0 -2625 1763 3590 4 MP
PP
0 sg
-159 0 0 2625 159 0 0 -2625 1763 3590 5 MP stroke
1 sg
0 2595 159 0 0 -2595 2459 3590 4 MP
PP
0 sg
-159 0 0 2595 159 0 0 -2595 2459 3590 5 MP stroke
1 sg
0 2934 159 0 0 -2934 3154 3590 4 MP
PP
0 sg
-159 0 0 2934 159 0 0 -2934 3154 3590 5 MP stroke
1 sg
0 2185 159 0 0 -2185 3850 3590 4 MP
PP
0 sg
-159 0 0 2185 159 0 0 -2185 3850 3590 5 MP stroke
1 sg
0 3005 159 0 0 -3005 4546 3590 4 MP
PP
0 sg
-159 0 0 3005 159 0 0 -3005 4546 3590 5 MP stroke
gr

2553 3878 mt 
(Obraz nr) s
 417 2416 mt  -90 rotate
(Data Saving Rate) s
90 rotate

end %%Color Dict

eplot
%%EndObject

epage
end

showpage

%%Trailer
%%EOF
