%!PS-Adobe-3.0 EPSF-3.0
%%Creator: MATLAB, The MathWorks, Inc. Version 7.14.0.739 (R2012a). Operating System: Linux 4.2.3-1-ARCH #1 SMP PREEMPT Sat Oct 3 18:52:50 CEST 2015 x86_64.
%%Title: /home/globalbus/Uczelnia/Magisterka/mixedLinearRatioBW.eps
%%CreationDate: 10/28/2015  04:47:11
%%DocumentNeededFonts: Helvetica
%%DocumentProcessColors: Cyan Magenta Yellow Black
%%LanguageLevel: 2
%%Pages: 1
%%BoundingBox:    73   252   521   589
%%EndComments

%%BeginProlog
% MathWorks dictionary
/MathWorks 160 dict begin
% definition operators
/bdef {bind def} bind def
/ldef {load def} bind def
/xdef {exch def} bdef
/xstore {exch store} bdef
% operator abbreviations
/c  /clip ldef
/cc /concat ldef
/cp /closepath ldef
/gr /grestore ldef
/gs /gsave ldef
/mt /moveto ldef
/np /newpath ldef
/cm /currentmatrix ldef
/sm /setmatrix ldef
/rm /rmoveto ldef
/rl /rlineto ldef
/s {show newpath} bdef
/sc {setcmykcolor} bdef
/sr /setrgbcolor ldef
/sg /setgray ldef
/w /setlinewidth ldef
/j /setlinejoin ldef
/cap /setlinecap ldef
/rc {rectclip} bdef
/rf {rectfill} bdef
% page state control
/pgsv () def
/bpage {/pgsv save def} bdef
/epage {pgsv restore} bdef
/bplot /gsave ldef
/eplot {stroke grestore} bdef
% orientation switch
/portraitMode 0 def /landscapeMode 1 def /rotateMode 2 def
% coordinate system mappings
/dpi2point 0 def
% font control
/FontSize 0 def
/FMS {/FontSize xstore findfont [FontSize 0 0 FontSize neg 0 0]
  makefont setfont} bdef
/reencode {exch dup where {pop load} {pop StandardEncoding} ifelse
  exch dup 3 1 roll findfont dup length dict begin
  { 1 index /FID ne {def}{pop pop} ifelse } forall
  /Encoding exch def currentdict end definefont pop} bdef
/isroman {findfont /CharStrings get /Agrave known} bdef
/FMSR {3 1 roll 1 index dup isroman {reencode} {pop pop} ifelse
  exch FMS} bdef
/csm {1 dpi2point div -1 dpi2point div scale neg translate
 dup landscapeMode eq {pop -90 rotate}
  {rotateMode eq {90 rotate} if} ifelse} bdef
% line types: solid, dotted, dashed, dotdash
/SO { [] 0 setdash } bdef
/DO { [.5 dpi2point mul 4 dpi2point mul] 0 setdash } bdef
/DA { [6 dpi2point mul] 0 setdash } bdef
/DD { [.5 dpi2point mul 4 dpi2point mul 6 dpi2point mul 4
  dpi2point mul] 0 setdash } bdef
% macros for lines and objects
/L {lineto stroke} bdef
/MP {3 1 roll moveto 1 sub {rlineto} repeat} bdef
/AP {{rlineto} repeat} bdef
/PDlw -1 def
/W {/PDlw currentlinewidth def setlinewidth} def
/PP {closepath eofill} bdef
/DP {closepath stroke} bdef
/MR {4 -2 roll moveto dup  0 exch rlineto exch 0 rlineto
  neg 0 exch rlineto closepath} bdef
/FR {MR stroke} bdef
/PR {MR fill} bdef
/L1i {{currentfile picstr readhexstring pop} image} bdef
/tMatrix matrix def
/MakeOval {newpath tMatrix currentmatrix pop translate scale
0 0 1 0 360 arc tMatrix setmatrix} bdef
/FO {MakeOval stroke} bdef
/PO {MakeOval fill} bdef
/PD {currentlinewidth 2 div 0 360 arc fill
   PDlw -1 eq not {PDlw w /PDlw -1 def} if} def
/FA {newpath tMatrix currentmatrix pop translate scale
  0 0 1 5 -2 roll arc tMatrix setmatrix stroke} bdef
/PA {newpath tMatrix currentmatrix pop	translate 0 0 moveto scale
  0 0 1 5 -2 roll arc closepath tMatrix setmatrix fill} bdef
/FAn {newpath tMatrix currentmatrix pop translate scale
  0 0 1 5 -2 roll arcn tMatrix setmatrix stroke} bdef
/PAn {newpath tMatrix currentmatrix pop translate 0 0 moveto scale
  0 0 1 5 -2 roll arcn closepath tMatrix setmatrix fill} bdef
/vradius 0 def /hradius 0 def /lry 0 def
/lrx 0 def /uly 0 def /ulx 0 def /rad 0 def
/MRR {/vradius xdef /hradius xdef /lry xdef /lrx xdef /uly xdef
  /ulx xdef newpath tMatrix currentmatrix pop ulx hradius add uly
  vradius add translate hradius vradius scale 0 0 1 180 270 arc 
  tMatrix setmatrix lrx hradius sub uly vradius add translate
  hradius vradius scale 0 0 1 270 360 arc tMatrix setmatrix
  lrx hradius sub lry vradius sub translate hradius vradius scale
  0 0 1 0 90 arc tMatrix setmatrix ulx hradius add lry vradius sub
  translate hradius vradius scale 0 0 1 90 180 arc tMatrix setmatrix
  closepath} bdef
/FRR {MRR stroke } bdef
/PRR {MRR fill } bdef
/MlrRR {/lry xdef /lrx xdef /uly xdef /ulx xdef /rad lry uly sub 2 div def
  newpath tMatrix currentmatrix pop ulx rad add uly rad add translate
  rad rad scale 0 0 1 90 270 arc tMatrix setmatrix lrx rad sub lry rad
  sub translate rad rad scale 0 0 1 270 90 arc tMatrix setmatrix
  closepath} bdef
/FlrRR {MlrRR stroke } bdef
/PlrRR {MlrRR fill } bdef
/MtbRR {/lry xdef /lrx xdef /uly xdef /ulx xdef /rad lrx ulx sub 2 div def
  newpath tMatrix currentmatrix pop ulx rad add uly rad add translate
  rad rad scale 0 0 1 180 360 arc tMatrix setmatrix lrx rad sub lry rad
  sub translate rad rad scale 0 0 1 0 180 arc tMatrix setmatrix
  closepath} bdef
/FtbRR {MtbRR stroke } bdef
/PtbRR {MtbRR fill } bdef
/stri 6 array def /dtri 6 array def
/smat 6 array def /dmat 6 array def
/tmat1 6 array def /tmat2 6 array def /dif 3 array def
/asub {/ind2 exch def /ind1 exch def dup dup
  ind1 get exch ind2 get sub exch } bdef
/tri_to_matrix {
  2 0 asub 3 1 asub 4 0 asub 5 1 asub
  dup 0 get exch 1 get 7 -1 roll astore } bdef
/compute_transform {
  dmat dtri tri_to_matrix tmat1 invertmatrix 
  smat stri tri_to_matrix tmat2 concatmatrix } bdef
/ds {stri astore pop} bdef
/dt {dtri astore pop} bdef
/db {2 copy /cols xdef /rows xdef mul dup 3 mul string
  currentfile 
  3 index 0 eq {/ASCIIHexDecode filter}
  {/ASCII85Decode filter 3 index 2 eq {/RunLengthDecode filter} if }
  ifelse exch readstring pop
  dup 0 3 index getinterval /rbmap xdef
  dup 2 index dup getinterval /gbmap xdef
  1 index dup 2 mul exch getinterval /bbmap xdef pop pop}bdef
/it {gs np dtri aload pop moveto lineto lineto cp c
  cols rows 8 compute_transform 
  rbmap gbmap bbmap true 3 colorimage gr}bdef
/il {newpath moveto lineto stroke}bdef
currentdict end def
%%EndProlog

%%BeginSetup
MathWorks begin

0 cap

end
%%EndSetup

%%Page: 1 1
%%BeginPageSetup
%%PageBoundingBox:    73   252   521   589
MathWorks begin
bpage
%%EndPageSetup

%%BeginObject: obj1
bplot

/dpi2point 12 def
portraitMode 0876 7068 csm

    0     0  5376  4034 rc
85 dict begin %Colortable dictionary
/c0 { 0.000000 0.000000 0.000000 sr} bdef
/c1 { 1.000000 1.000000 1.000000 sr} bdef
/c2 { 0.900000 0.000000 0.000000 sr} bdef
/c3 { 0.000000 0.820000 0.000000 sr} bdef
/c4 { 0.000000 0.000000 0.800000 sr} bdef
/c5 { 0.910000 0.820000 0.320000 sr} bdef
/c6 { 1.000000 0.260000 0.820000 sr} bdef
/c7 { 0.000000 0.820000 0.820000 sr} bdef
c0
1 j
1 sg
   0    0 5377 4035 rf
6 w
0 3287 4166 0 0 -3287 699 3590 4 MP
PP
-4166 0 0 3287 4166 0 0 -3287 699 3590 5 MP stroke
4 w
DO
SO
6 w
0 sg
 699 3590 mt 4865 3590 L
 699  303 mt 4865  303 L
 699 3590 mt  699  303 L
4865 3590 mt 4865  303 L
 699 3590 mt 4865 3590 L
 699 3590 mt  699  303 L
1046 3590 mt 1046 3548 L
1046  303 mt 1046  344 L
%%IncludeResource: font Helvetica
/Helvetica /ISOLatin1Encoding 120 FMSR

1013 3735 mt 
(1) s
1740 3590 mt 1740 3548 L
1740  303 mt 1740  344 L
1707 3735 mt 
(2) s
2434 3590 mt 2434 3548 L
2434  303 mt 2434  344 L
2401 3735 mt 
(3) s
3129 3590 mt 3129 3548 L
3129  303 mt 3129  344 L
3096 3735 mt 
(4) s
3823 3590 mt 3823 3548 L
3823  303 mt 3823  344 L
3790 3735 mt 
(5) s
4517 3590 mt 4517 3548 L
4517  303 mt 4517  344 L
4484 3735 mt 
(6) s
 699 3590 mt  740 3590 L
4865 3590 mt 4823 3590 L
 598 3634 mt 
(0) s
 699 3261 mt  740 3261 L
4865 3261 mt 4823 3261 L
 431 3305 mt 
(0.05) s
 699 2932 mt  740 2932 L
4865 2932 mt 4823 2932 L
 498 2976 mt 
(0.1) s
 699 2603 mt  740 2603 L
4865 2603 mt 4823 2603 L
 431 2647 mt 
(0.15) s
 699 2275 mt  740 2275 L
4865 2275 mt 4823 2275 L
 498 2319 mt 
(0.2) s
 699 1946 mt  740 1946 L
4865 1946 mt 4823 1946 L
 431 1990 mt 
(0.25) s
 699 1617 mt  740 1617 L
4865 1617 mt 4823 1617 L
 498 1661 mt 
(0.3) s
 699 1289 mt  740 1289 L
4865 1289 mt 4823 1289 L
 431 1333 mt 
(0.35) s
 699  960 mt  740  960 L
4865  960 mt 4823  960 L
 498 1004 mt 
(0.4) s
 699  631 mt  740  631 L
4865  631 mt 4823  631 L
 431  675 mt 
(0.45) s
 699  303 mt  740  303 L
4865  303 mt 4823  303 L
 498  347 mt 
(0.5) s
 699 3590 mt 4865 3590 L
 699  303 mt 4865  303 L
 699 3590 mt  699  303 L
4865 3590 mt 4865  303 L
gs 699 303 4167 3288 rc
0 1593 159 0 0 -1593 867 3590 4 MP
PP
-159 0 0 1593 159 0 0 -1593 867 3590 5 MP stroke
0 2720 159 0 0 -2720 1561 3590 4 MP
PP
-159 0 0 2720 159 0 0 -2720 1561 3590 5 MP stroke
0 1918 158 0 0 -1918 2256 3590 4 MP
PP
-158 0 0 1918 158 0 0 -1918 2256 3590 5 MP stroke
0 2797 159 0 0 -2797 2950 3590 4 MP
PP
-159 0 0 2797 159 0 0 -2797 2950 3590 5 MP stroke
0 2161 159 0 0 -2161 3644 3590 4 MP
PP
-159 0 0 2161 159 0 0 -2161 3644 3590 5 MP stroke
0 2158 158 0 0 -2158 4339 3590 4 MP
PP
-158 0 0 2158 158 0 0 -2158 4339 3590 5 MP stroke
4166 0 699 3590 2 MP stroke
1 sg
0 1113 158 0 0 -1113 1066 3590 4 MP
PP
0 sg
-158 0 0 1113 158 0 0 -1113 1066 3590 5 MP stroke
1 sg
0 2736 159 0 0 -2736 1760 3590 4 MP
PP
0 sg
-159 0 0 2736 159 0 0 -2736 1760 3590 5 MP stroke
1 sg
0 1407 159 0 0 -1407 2454 3590 4 MP
PP
0 sg
-159 0 0 1407 159 0 0 -1407 2454 3590 5 MP stroke
1 sg
0 1965 158 0 0 -1965 3149 3590 4 MP
PP
0 sg
-158 0 0 1965 158 0 0 -1965 3149 3590 5 MP stroke
1 sg
0 1648 159 0 0 -1648 3843 3590 4 MP
PP
0 sg
-159 0 0 1648 159 0 0 -1648 3843 3590 5 MP stroke
1 sg
0 2584 159 0 0 -2584 4537 3590 4 MP
PP
0 sg
-159 0 0 2584 159 0 0 -2584 4537 3590 5 MP stroke
gr

2548 3878 mt 
(Obraz nr) s
 349 2416 mt  -90 rotate
(Data Saving Rate) s
90 rotate

end %%Color Dict

eplot
%%EndObject

epage
end

showpage

%%Trailer
%%EOF
