%!PS-Adobe-3.0 EPSF-3.0
%%Creator: MATLAB, The MathWorks, Inc. Version 7.14.0.739 (R2012a). Operating System: Linux 4.1.1-gentoo-r1-globalbus #2 SMP Thu Jul 23 21:26:56 CEST 2015 x86_64.
%%Title: /home/globalbus/Uczelnia/Magisterka/docs/graphics/peano.eps
%%CreationDate: 08/03/2015  04:58:19
%%DocumentNeededFonts: Helvetica
%%DocumentProcessColors: Cyan Magenta Yellow Black
%%LanguageLevel: 2
%%Pages: 1
%%BoundingBox:    73   267   521   572
%%EndComments

%%BeginProlog
% MathWorks dictionary
/MathWorks 160 dict begin
% definition operators
/bdef {bind def} bind def
/ldef {load def} bind def
/xdef {exch def} bdef
/xstore {exch store} bdef
% operator abbreviations
/c  /clip ldef
/cc /concat ldef
/cp /closepath ldef
/gr /grestore ldef
/gs /gsave ldef
/mt /moveto ldef
/np /newpath ldef
/cm /currentmatrix ldef
/sm /setmatrix ldef
/rm /rmoveto ldef
/rl /rlineto ldef
/s {show newpath} bdef
/sc {setcmykcolor} bdef
/sr /setrgbcolor ldef
/sg /setgray ldef
/w /setlinewidth ldef
/j /setlinejoin ldef
/cap /setlinecap ldef
/rc {rectclip} bdef
/rf {rectfill} bdef
% page state control
/pgsv () def
/bpage {/pgsv save def} bdef
/epage {pgsv restore} bdef
/bplot /gsave ldef
/eplot {stroke grestore} bdef
% orientation switch
/portraitMode 0 def /landscapeMode 1 def /rotateMode 2 def
% coordinate system mappings
/dpi2point 0 def
% font control
/FontSize 0 def
/FMS {/FontSize xstore findfont [FontSize 0 0 FontSize neg 0 0]
  makefont setfont} bdef
/reencode {exch dup where {pop load} {pop StandardEncoding} ifelse
  exch dup 3 1 roll findfont dup length dict begin
  { 1 index /FID ne {def}{pop pop} ifelse } forall
  /Encoding exch def currentdict end definefont pop} bdef
/isroman {findfont /CharStrings get /Agrave known} bdef
/FMSR {3 1 roll 1 index dup isroman {reencode} {pop pop} ifelse
  exch FMS} bdef
/csm {1 dpi2point div -1 dpi2point div scale neg translate
 dup landscapeMode eq {pop -90 rotate}
  {rotateMode eq {90 rotate} if} ifelse} bdef
% line types: solid, dotted, dashed, dotdash
/SO { [] 0 setdash } bdef
/DO { [.5 dpi2point mul 4 dpi2point mul] 0 setdash } bdef
/DA { [6 dpi2point mul] 0 setdash } bdef
/DD { [.5 dpi2point mul 4 dpi2point mul 6 dpi2point mul 4
  dpi2point mul] 0 setdash } bdef
% macros for lines and objects
/L {lineto stroke} bdef
/MP {3 1 roll moveto 1 sub {rlineto} repeat} bdef
/AP {{rlineto} repeat} bdef
/PDlw -1 def
/W {/PDlw currentlinewidth def setlinewidth} def
/PP {closepath eofill} bdef
/DP {closepath stroke} bdef
/MR {4 -2 roll moveto dup  0 exch rlineto exch 0 rlineto
  neg 0 exch rlineto closepath} bdef
/FR {MR stroke} bdef
/PR {MR fill} bdef
/L1i {{currentfile picstr readhexstring pop} image} bdef
/tMatrix matrix def
/MakeOval {newpath tMatrix currentmatrix pop translate scale
0 0 1 0 360 arc tMatrix setmatrix} bdef
/FO {MakeOval stroke} bdef
/PO {MakeOval fill} bdef
/PD {currentlinewidth 2 div 0 360 arc fill
   PDlw -1 eq not {PDlw w /PDlw -1 def} if} def
/FA {newpath tMatrix currentmatrix pop translate scale
  0 0 1 5 -2 roll arc tMatrix setmatrix stroke} bdef
/PA {newpath tMatrix currentmatrix pop	translate 0 0 moveto scale
  0 0 1 5 -2 roll arc closepath tMatrix setmatrix fill} bdef
/FAn {newpath tMatrix currentmatrix pop translate scale
  0 0 1 5 -2 roll arcn tMatrix setmatrix stroke} bdef
/PAn {newpath tMatrix currentmatrix pop translate 0 0 moveto scale
  0 0 1 5 -2 roll arcn closepath tMatrix setmatrix fill} bdef
/vradius 0 def /hradius 0 def /lry 0 def
/lrx 0 def /uly 0 def /ulx 0 def /rad 0 def
/MRR {/vradius xdef /hradius xdef /lry xdef /lrx xdef /uly xdef
  /ulx xdef newpath tMatrix currentmatrix pop ulx hradius add uly
  vradius add translate hradius vradius scale 0 0 1 180 270 arc 
  tMatrix setmatrix lrx hradius sub uly vradius add translate
  hradius vradius scale 0 0 1 270 360 arc tMatrix setmatrix
  lrx hradius sub lry vradius sub translate hradius vradius scale
  0 0 1 0 90 arc tMatrix setmatrix ulx hradius add lry vradius sub
  translate hradius vradius scale 0 0 1 90 180 arc tMatrix setmatrix
  closepath} bdef
/FRR {MRR stroke } bdef
/PRR {MRR fill } bdef
/MlrRR {/lry xdef /lrx xdef /uly xdef /ulx xdef /rad lry uly sub 2 div def
  newpath tMatrix currentmatrix pop ulx rad add uly rad add translate
  rad rad scale 0 0 1 90 270 arc tMatrix setmatrix lrx rad sub lry rad
  sub translate rad rad scale 0 0 1 270 90 arc tMatrix setmatrix
  closepath} bdef
/FlrRR {MlrRR stroke } bdef
/PlrRR {MlrRR fill } bdef
/MtbRR {/lry xdef /lrx xdef /uly xdef /ulx xdef /rad lrx ulx sub 2 div def
  newpath tMatrix currentmatrix pop ulx rad add uly rad add translate
  rad rad scale 0 0 1 180 360 arc tMatrix setmatrix lrx rad sub lry rad
  sub translate rad rad scale 0 0 1 0 180 arc tMatrix setmatrix
  closepath} bdef
/FtbRR {MtbRR stroke } bdef
/PtbRR {MtbRR fill } bdef
/stri 6 array def /dtri 6 array def
/smat 6 array def /dmat 6 array def
/tmat1 6 array def /tmat2 6 array def /dif 3 array def
/asub {/ind2 exch def /ind1 exch def dup dup
  ind1 get exch ind2 get sub exch } bdef
/tri_to_matrix {
  2 0 asub 3 1 asub 4 0 asub 5 1 asub
  dup 0 get exch 1 get 7 -1 roll astore } bdef
/compute_transform {
  dmat dtri tri_to_matrix tmat1 invertmatrix 
  smat stri tri_to_matrix tmat2 concatmatrix } bdef
/ds {stri astore pop} bdef
/dt {dtri astore pop} bdef
/db {2 copy /cols xdef /rows xdef mul dup 3 mul string
  currentfile 
  3 index 0 eq {/ASCIIHexDecode filter}
  {/ASCII85Decode filter 3 index 2 eq {/RunLengthDecode filter} if }
  ifelse exch readstring pop
  dup 0 3 index getinterval /rbmap xdef
  dup 2 index dup getinterval /gbmap xdef
  1 index dup 2 mul exch getinterval /bbmap xdef pop pop}bdef
/it {gs np dtri aload pop moveto lineto lineto cp c
  cols rows 8 compute_transform 
  rbmap gbmap bbmap true 3 colorimage gr}bdef
/il {newpath moveto lineto stroke}bdef
currentdict end def
%%EndProlog

%%BeginSetup
MathWorks begin

0 cap

end
%%EndSetup

%%Page: 1 1
%%BeginPageSetup
%%PageBoundingBox:    73   267   521   572
MathWorks begin
bpage
%%EndPageSetup

%%BeginObject: obj1
bplot

/dpi2point 12 def
portraitMode 0876 6864 csm

    0     0  5376  3649 rc
85 dict begin %Colortable dictionary
/c0 { 0.000000 0.000000 0.000000 sr} bdef
/c1 { 1.000000 1.000000 1.000000 sr} bdef
/c2 { 0.900000 0.000000 0.000000 sr} bdef
/c3 { 0.000000 0.820000 0.000000 sr} bdef
/c4 { 0.000000 0.000000 0.800000 sr} bdef
/c5 { 0.910000 0.820000 0.320000 sr} bdef
/c6 { 1.000000 0.260000 0.820000 sr} bdef
/c7 { 0.000000 0.820000 0.820000 sr} bdef
c0
1 j
1 sg
   0    0 5377 3650 rf
6 w
0 2975 4166 0 0 -2975 699 3248 4 MP
PP
-4166 0 0 2975 4166 0 0 -2975 699 3248 5 MP stroke
4 w
DO
SO
6 w
0 sg
 699 3248 mt 4865 3248 L
 699  273 mt 4865  273 L
 699 3248 mt  699  273 L
4865 3248 mt 4865  273 L
 699 3248 mt 4865 3248 L
 699 3248 mt  699  273 L
 699 3248 mt  699 3206 L
 699  274 mt  699  315 L
%%IncludeResource: font Helvetica
/Helvetica /ISOLatin1Encoding 120 FMSR

 666 3393 mt 
(0) s
1115 3248 mt 1115 3206 L
1115  274 mt 1115  315 L
1082 3393 mt 
(1) s
1532 3248 mt 1532 3206 L
1532  274 mt 1532  315 L
1499 3393 mt 
(2) s
1948 3248 mt 1948 3206 L
1948  274 mt 1948  315 L
1915 3393 mt 
(3) s
2365 3248 mt 2365 3206 L
2365  274 mt 2365  315 L
2332 3393 mt 
(4) s
2782 3248 mt 2782 3206 L
2782  274 mt 2782  315 L
2749 3393 mt 
(5) s
3198 3248 mt 3198 3206 L
3198  274 mt 3198  315 L
3165 3393 mt 
(6) s
3615 3248 mt 3615 3206 L
3615  274 mt 3615  315 L
3582 3393 mt 
(7) s
4031 3248 mt 4031 3206 L
4031  274 mt 4031  315 L
3998 3393 mt 
(8) s
4448 3248 mt 4448 3206 L
4448  274 mt 4448  315 L
4415 3393 mt 
(9) s
4865 3248 mt 4865 3206 L
4865  274 mt 4865  315 L
4799 3393 mt 
(10) s
 699 3248 mt  740 3248 L
4865 3248 mt 4823 3248 L
 598 3292 mt 
(0) s
 699 2950 mt  740 2950 L
4865 2950 mt 4823 2950 L
 598 2994 mt 
(1) s
 699 2653 mt  740 2653 L
4865 2653 mt 4823 2653 L
 598 2697 mt 
(2) s
 699 2355 mt  740 2355 L
4865 2355 mt 4823 2355 L
 598 2399 mt 
(3) s
 699 2058 mt  740 2058 L
4865 2058 mt 4823 2058 L
 598 2102 mt 
(4) s
 699 1761 mt  740 1761 L
4865 1761 mt 4823 1761 L
 598 1805 mt 
(5) s
 699 1463 mt  740 1463 L
4865 1463 mt 4823 1463 L
 598 1507 mt 
(6) s
 699 1166 mt  740 1166 L
4865 1166 mt 4823 1166 L
 598 1210 mt 
(7) s
 699  868 mt  740  868 L
4865  868 mt 4823  868 L
 598  912 mt 
(8) s
 699  571 mt  740  571 L
4865  571 mt 4823  571 L
 598  615 mt 
(9) s
 699  274 mt  740  274 L
4865  274 mt 4823  274 L
 531  318 mt 
(10) s
 699 3248 mt 4865 3248 L
 699  273 mt 4865  273 L
 699 3248 mt  699  273 L
4865 3248 mt 4865  273 L
gs 699 274 4167 2975 rc
/c8 { 0.000000 0.000000 1.000000 sr} bdef
c8
417 0 416 0 0 -297 -416 0 -417 0 0 -298 417 0 416 0 
417 0 416 0 417 0 0 298 -417 0 -416 0 0 297 416 0 
417 0 417 0 416 0 417 0 0 -297 -417 0 -416 0 0 -298 
416 0 417 0 0 -297 -417 0 -416 0 0 -297 416 0 417 0 
0 -298 -417 0 -416 0 -417 0 -417 0 -416 0 0 298 416 0 
417 0 0 297 -417 0 -416 0 -417 0 -416 0 -417 0 0 -297 
417 0 416 0 0 -298 -416 0 -417 0 0 -297 417 0 416 0 
0 -298 -416 0 -417 0 0 -297 417 0 416 0 417 0 416 0 
417 0 0 297 -417 0 -416 0 0 298 416 0 417 0 417 0 
416 0 417 0 0 -298 -417 0 -416 0 0 -297 416 0 417 0 
1115 2950 81 MP stroke
gr

c8
24 W
1115 2950 PD
24 W
1532 2950 PD
24 W
1948 2950 PD
24 W
1948 2653 PD
24 W
1532 2653 PD
24 W
1115 2653 PD
24 W
1115 2355 PD
24 W
1532 2355 PD
24 W
1948 2355 PD
24 W
2365 2355 PD
24 W
2782 2355 PD
24 W
3198 2355 PD
24 W
3198 2653 PD
24 W
2782 2653 PD
24 W
2365 2653 PD
24 W
2365 2950 PD
24 W
2782 2950 PD
24 W
3198 2950 PD
24 W
3615 2950 PD
24 W
4031 2950 PD
24 W
4448 2950 PD
24 W
4448 2653 PD
24 W
4031 2653 PD
24 W
3615 2653 PD
24 W
3615 2355 PD
24 W
4031 2355 PD
24 W
4448 2355 PD
24 W
4448 2058 PD
24 W
4031 2058 PD
24 W
3615 2058 PD
24 W
3615 1760 PD
24 W
4031 1760 PD
24 W
4448 1760 PD
24 W
4448 1463 PD
24 W
4031 1463 PD
24 W
3615 1463 PD
24 W
3198 1463 PD
24 W
2782 1463 PD
24 W
2365 1463 PD
24 W
2365 1760 PD
24 W
2782 1760 PD
24 W
3198 1760 PD
24 W
3198 2058 PD
24 W
2782 2058 PD
24 W
2365 2058 PD
24 W
1948 2058 PD
24 W
1532 2058 PD
24 W
1115 2058 PD
24 W
1115 1760 PD
24 W
1532 1760 PD
24 W
1948 1760 PD
24 W
1948 1463 PD
24 W
1532 1463 PD
24 W
1115 1463 PD
24 W
1115 1166 PD
24 W
1532 1166 PD
24 W
1948 1166 PD
24 W
1948 868 PD
24 W
1532 868 PD
24 W
1115 868 PD
24 W
1115 571 PD
24 W
1532 571 PD
24 W
1948 571 PD
24 W
2365 571 PD
24 W
2782 571 PD
24 W
3198 571 PD
24 W
3198 868 PD
24 W
2782 868 PD
24 W
2365 868 PD
24 W
2365 1166 PD
24 W
2782 1166 PD
24 W
3198 1166 PD
24 W
3615 1166 PD
24 W
4031 1166 PD
24 W
4448 1166 PD
24 W
4448 868 PD
24 W
4031 868 PD
24 W
3615 868 PD
24 W
3615 571 PD
24 W
4031 571 PD
24 W
4448 571 PD
gs 699 274 4167 2975 rc
gr


end %%Color Dict

eplot
%%EndObject

epage
end

showpage

%%Trailer
%%EOF
