%!PS-Adobe-3.0 EPSF-3.0
%%Creator: MATLAB, The MathWorks, Inc. Version 7.14.0.739 (R2012a). Operating System: Linux 4.1.1-gentoo-r1-globalbus #2 SMP Thu Jul 23 21:26:56 CEST 2015 x86_64.
%%Title: /home/globalbus/Uczelnia/Magisterka/randomImage.eps
%%CreationDate: 08/22/2015  23:41:13
%%DocumentNeededFonts: Helvetica
%%DocumentProcessColors: Cyan Magenta Yellow Black
%%LanguageLevel: 2
%%Pages: 1
%%BoundingBox:    73   248   521   593
%%EndComments

%%BeginProlog
% MathWorks dictionary
/MathWorks 160 dict begin
% definition operators
/bdef {bind def} bind def
/ldef {load def} bind def
/xdef {exch def} bdef
/xstore {exch store} bdef
% operator abbreviations
/c  /clip ldef
/cc /concat ldef
/cp /closepath ldef
/gr /grestore ldef
/gs /gsave ldef
/mt /moveto ldef
/np /newpath ldef
/cm /currentmatrix ldef
/sm /setmatrix ldef
/rm /rmoveto ldef
/rl /rlineto ldef
/s {show newpath} bdef
/sc {setcmykcolor} bdef
/sr /setrgbcolor ldef
/sg /setgray ldef
/w /setlinewidth ldef
/j /setlinejoin ldef
/cap /setlinecap ldef
/rc {rectclip} bdef
/rf {rectfill} bdef
% page state control
/pgsv () def
/bpage {/pgsv save def} bdef
/epage {pgsv restore} bdef
/bplot /gsave ldef
/eplot {stroke grestore} bdef
% orientation switch
/portraitMode 0 def /landscapeMode 1 def /rotateMode 2 def
% coordinate system mappings
/dpi2point 0 def
% font control
/FontSize 0 def
/FMS {/FontSize xstore findfont [FontSize 0 0 FontSize neg 0 0]
  makefont setfont} bdef
/reencode {exch dup where {pop load} {pop StandardEncoding} ifelse
  exch dup 3 1 roll findfont dup length dict begin
  { 1 index /FID ne {def}{pop pop} ifelse } forall
  /Encoding exch def currentdict end definefont pop} bdef
/isroman {findfont /CharStrings get /Agrave known} bdef
/FMSR {3 1 roll 1 index dup isroman {reencode} {pop pop} ifelse
  exch FMS} bdef
/csm {1 dpi2point div -1 dpi2point div scale neg translate
 dup landscapeMode eq {pop -90 rotate}
  {rotateMode eq {90 rotate} if} ifelse} bdef
% line types: solid, dotted, dashed, dotdash
/SO { [] 0 setdash } bdef
/DO { [.5 dpi2point mul 4 dpi2point mul] 0 setdash } bdef
/DA { [6 dpi2point mul] 0 setdash } bdef
/DD { [.5 dpi2point mul 4 dpi2point mul 6 dpi2point mul 4
  dpi2point mul] 0 setdash } bdef
% macros for lines and objects
/L {lineto stroke} bdef
/MP {3 1 roll moveto 1 sub {rlineto} repeat} bdef
/AP {{rlineto} repeat} bdef
/PDlw -1 def
/W {/PDlw currentlinewidth def setlinewidth} def
/PP {closepath eofill} bdef
/DP {closepath stroke} bdef
/MR {4 -2 roll moveto dup  0 exch rlineto exch 0 rlineto
  neg 0 exch rlineto closepath} bdef
/FR {MR stroke} bdef
/PR {MR fill} bdef
/L1i {{currentfile picstr readhexstring pop} image} bdef
/tMatrix matrix def
/MakeOval {newpath tMatrix currentmatrix pop translate scale
0 0 1 0 360 arc tMatrix setmatrix} bdef
/FO {MakeOval stroke} bdef
/PO {MakeOval fill} bdef
/PD {currentlinewidth 2 div 0 360 arc fill
   PDlw -1 eq not {PDlw w /PDlw -1 def} if} def
/FA {newpath tMatrix currentmatrix pop translate scale
  0 0 1 5 -2 roll arc tMatrix setmatrix stroke} bdef
/PA {newpath tMatrix currentmatrix pop	translate 0 0 moveto scale
  0 0 1 5 -2 roll arc closepath tMatrix setmatrix fill} bdef
/FAn {newpath tMatrix currentmatrix pop translate scale
  0 0 1 5 -2 roll arcn tMatrix setmatrix stroke} bdef
/PAn {newpath tMatrix currentmatrix pop translate 0 0 moveto scale
  0 0 1 5 -2 roll arcn closepath tMatrix setmatrix fill} bdef
/vradius 0 def /hradius 0 def /lry 0 def
/lrx 0 def /uly 0 def /ulx 0 def /rad 0 def
/MRR {/vradius xdef /hradius xdef /lry xdef /lrx xdef /uly xdef
  /ulx xdef newpath tMatrix currentmatrix pop ulx hradius add uly
  vradius add translate hradius vradius scale 0 0 1 180 270 arc 
  tMatrix setmatrix lrx hradius sub uly vradius add translate
  hradius vradius scale 0 0 1 270 360 arc tMatrix setmatrix
  lrx hradius sub lry vradius sub translate hradius vradius scale
  0 0 1 0 90 arc tMatrix setmatrix ulx hradius add lry vradius sub
  translate hradius vradius scale 0 0 1 90 180 arc tMatrix setmatrix
  closepath} bdef
/FRR {MRR stroke } bdef
/PRR {MRR fill } bdef
/MlrRR {/lry xdef /lrx xdef /uly xdef /ulx xdef /rad lry uly sub 2 div def
  newpath tMatrix currentmatrix pop ulx rad add uly rad add translate
  rad rad scale 0 0 1 90 270 arc tMatrix setmatrix lrx rad sub lry rad
  sub translate rad rad scale 0 0 1 270 90 arc tMatrix setmatrix
  closepath} bdef
/FlrRR {MlrRR stroke } bdef
/PlrRR {MlrRR fill } bdef
/MtbRR {/lry xdef /lrx xdef /uly xdef /ulx xdef /rad lrx ulx sub 2 div def
  newpath tMatrix currentmatrix pop ulx rad add uly rad add translate
  rad rad scale 0 0 1 180 360 arc tMatrix setmatrix lrx rad sub lry rad
  sub translate rad rad scale 0 0 1 0 180 arc tMatrix setmatrix
  closepath} bdef
/FtbRR {MtbRR stroke } bdef
/PtbRR {MtbRR fill } bdef
/stri 6 array def /dtri 6 array def
/smat 6 array def /dmat 6 array def
/tmat1 6 array def /tmat2 6 array def /dif 3 array def
/asub {/ind2 exch def /ind1 exch def dup dup
  ind1 get exch ind2 get sub exch } bdef
/tri_to_matrix {
  2 0 asub 3 1 asub 4 0 asub 5 1 asub
  dup 0 get exch 1 get 7 -1 roll astore } bdef
/compute_transform {
  dmat dtri tri_to_matrix tmat1 invertmatrix 
  smat stri tri_to_matrix tmat2 concatmatrix } bdef
/ds {stri astore pop} bdef
/dt {dtri astore pop} bdef
/db {2 copy /cols xdef /rows xdef mul dup 3 mul string
  currentfile 
  3 index 0 eq {/ASCIIHexDecode filter}
  {/ASCII85Decode filter 3 index 2 eq {/RunLengthDecode filter} if }
  ifelse exch readstring pop
  dup 0 3 index getinterval /rbmap xdef
  dup 2 index dup getinterval /gbmap xdef
  1 index dup 2 mul exch getinterval /bbmap xdef pop pop}bdef
/it {gs np dtri aload pop moveto lineto lineto cp c
  cols rows 8 compute_transform 
  rbmap gbmap bbmap true 3 colorimage gr}bdef
/il {newpath moveto lineto stroke}bdef
currentdict end def
%%EndProlog

%%BeginSetup
MathWorks begin

0 cap

end
%%EndSetup

%%Page: 1 1
%%BeginPageSetup
%%PageBoundingBox:    73   248   521   593
MathWorks begin
bpage
%%EndPageSetup

%%BeginObject: obj1
bplot

/dpi2point 12 def
portraitMode 0876 7116 csm

    0     0  5376  4130 rc
85 dict begin %Colortable dictionary
/c0 { 0.000000 0.000000 0.000000 sr} bdef
/c1 { 1.000000 1.000000 1.000000 sr} bdef
/c2 { 0.900000 0.000000 0.000000 sr} bdef
/c3 { 0.000000 0.820000 0.000000 sr} bdef
/c4 { 0.000000 0.000000 0.800000 sr} bdef
/c5 { 0.910000 0.820000 0.320000 sr} bdef
/c6 { 1.000000 0.260000 0.820000 sr} bdef
/c7 { 0.000000 0.820000 0.820000 sr} bdef
c0
1 j
1 sg
   0    0 5377 4131 rf
6 w
0 3366 4166 0 0 -3366 699 3676 4 MP
PP
-4166 0 0 3366 4166 0 0 -3366 699 3676 5 MP stroke
4 w
DO
SO
6 w
0 sg
 699 3676 mt 4865 3676 L
 699  310 mt 4865  310 L
 699 3676 mt  699  310 L
4865 3676 mt 4865  310 L
 699 3676 mt 4865 3676 L
 699 3676 mt  699  310 L
 699 3676 mt  699 3634 L
 699  310 mt  699  351 L
%%IncludeResource: font Helvetica
/Helvetica /ISOLatin1Encoding 120 FMSR

 529 3821 mt 
(-300) s
1393 3676 mt 1393 3634 L
1393  310 mt 1393  351 L
1223 3821 mt 
(-200) s
2087 3676 mt 2087 3634 L
2087  310 mt 2087  351 L
1917 3821 mt 
(-100) s
2782 3676 mt 2782 3634 L
2782  310 mt 2782  351 L
2749 3821 mt 
(0) s
3476 3676 mt 3476 3634 L
3476  310 mt 3476  351 L
3376 3821 mt 
(100) s
4170 3676 mt 4170 3634 L
4170  310 mt 4170  351 L
4070 3821 mt 
(200) s
4865 3676 mt 4865 3634 L
4865  310 mt 4865  351 L
4765 3821 mt 
(300) s
 699 3676 mt  740 3676 L
4865 3676 mt 4823 3676 L
 598 3720 mt 
(0) s
 699 3195 mt  740 3195 L
4865 3195 mt 4823 3195 L
 464 3239 mt 
(500) s
 699 2714 mt  740 2714 L
4865 2714 mt 4823 2714 L
 398 2758 mt 
(1000) s
 699 2233 mt  740 2233 L
4865 2233 mt 4823 2233 L
 398 2277 mt 
(1500) s
 699 1752 mt  740 1752 L
4865 1752 mt 4823 1752 L
 398 1796 mt 
(2000) s
 699 1271 mt  740 1271 L
4865 1271 mt 4823 1271 L
 398 1315 mt 
(2500) s
 699  790 mt  740  790 L
4865  790 mt 4823  790 L
 398  834 mt 
(3000) s
 699  310 mt  740  310 L
4865  310 mt 4823  310 L
 398  354 mt 
(3500) s
 699 3676 mt 4865 3676 L
 699  310 mt 4865  310 L
 699 3676 mt  699  310 L
4865 3676 mt 4865  310 L
gs 699 310 4167 3367 rc
/c8 { 0.000000 0.000000 1.000000 sr} bdef
c8
7 14 7 11 7 10 7 9 7 11 7 12 7 20 6 5 
7 20 7 -18 7 39 7 17 7 10 7 4 7 6 7 46 
7 -46 7 41 7 5 7 24 7 33 7 -10 7 -6 7 51 
7 -41 6 17 7 21 7 3 7 18 7 -32 7 66 7 15 
7 8 7 34 7 -20 7 30 7 -27 7 22 7 59 7 -21 
7 -4 7 57 7 -22 6 -3 7 57 7 -22 7 15 7 22 
7 -17 7 26 7 8 7 49 7 -13 7 33 7 -9 7 25 
7 7 7 21 7 -40 7 22 6 43 7 24 7 -49 7 44 
7 -12 7 5 7 75 7 -24 7 15 7 0 7 67 7 -52 
7 67 7 1 7 41 7 -40 7 -51 7 31 6 49 7 46 
7 19 7 -19 7 48 7 1 7 -5 7 8 7 -1 7 -15 
7 10 7 7 7 12 7 79 7 -27 7 2 7 72 7 18 
6 -43 7 36 7 0 7 9 7 -41 7 7 7 141 7 -64 
7 16 7 50 7 -64 7 70 7 66 7 -127 7 53 7 7 
7 43 6 21 7 -36 7 34 7 11 7 -14 7 33 7 15 
7 30 7 -18 7 73 7 -18 7 -72 7 70 7 10 7 65 
7 -42 7 97 7 -51 6 30 7 -35 7 47 7 -13 7 -13 
7 57 7 -36 7 26 7 87 7 -78 7 28 7 8 7 79 
7 33 7 -87 7 53 7 36 7 -14 6 -32 7 89 7 17 
7 -64 7 -65 7 81 7 107 7 -18 7 -17 7 52 7 -33 
7 46 7 69 7 -117 7 88 7 35 7 -121 6 76 7 69 
7 -43 7 -2 7 65 7 21 7 -22 7 -22 7 -37 7 77 
7 78 7 -18 7 14 7 -10 7 51 7 -48 7 -17 7 -4 
6 59 7 69 7 25 7 -50 7 108 7 -83 7 75 7 -92 
7 -61 7 142 7 69 7 -41 7 -80 7 71 7 41 7 99 
7 -142 7 -7 6 84 7 -22 7 26 7 -2 7 51 7 -10 
7 68 7 -41 7 -11 7 68 7 -31 7 58 7 20 7 -85 
7 51 7 27 7 46 6 -63 7 72 7 0 7 78 7 -31 
7 -36 7 2 7 31 7 112 7 -123 7 84 7 29 7 -102 
7 194 7 -93 7 -2 7 -53 7 91 6 107 7 -13 7 -36 
7 -1 7 -25 7 17 7 -62 7 132 7 -16 7 -105 7 181 
7 -99 7 115 7 -165 7 31 7 70 7 141 6 -126 7 25 
7 -27 7 79 7 -82 7 53 7 -44 7 -104 7 43 7 -35 
7 -1 7 23 7 7 7 -99 7 108 7 -107 7 16 7 -110 
6 45 7 45 7 -65 7 10 7 -41 7 73 7 -78 7 -44 
7 14 7 22 7 -16 7 -57 7 55 7 -27 7 -38 7 -4 
7 59 7 -6 6 -42 7 -12 7 -72 7 92 7 -66 7 53 
7 -12 7 -10 7 -110 2476 1245 300 MP stroke
7 -15 7 -11 7 9 7 66 7 -82 7 29 7 -14 7 -26 
6 25 7 -89 7 8 7 -30 7 -26 7 8 7 -64 7 73 
7 31 7 -63 7 -119 7 90 7 -12 7 8 7 -86 7 12 
7 53 7 -62 6 -61 7 -71 7 171 7 -88 7 -10 7 23 
7 4 7 -53 7 48 7 12 7 -18 7 -41 7 -108 7 47 
7 -30 7 18 7 7 7 -24 6 -70 7 54 7 -70 7 -19 
7 45 7 -39 7 30 7 -97 7 30 7 -20 7 -70 7 15 
7 125 7 -136 7 2 7 -15 7 20 6 -36 7 -10 7 -16 
7 20 7 -5 7 7 7 -46 7 -50 7 -26 7 -6 7 58 
7 11 7 -51 7 -51 7 1 7 -10 7 102 7 -62 6 2 
7 -25 7 -59 7 -18 7 -7 7 38 7 -22 7 -59 7 -53 
7 61 7 -113 7 96 7 -74 7 30 7 -21 7 -23 7 0 
7 -86 6 53 7 -35 7 5 7 57 7 -83 7 -8 7 65 
7 -95 7 7 7 -4 7 -56 7 59 7 -52 7 38 7 -52 
7 -7 7 -87 6 99 7 18 7 -108 7 -19 7 8 7 -40 
7 20 7 -65 7 38 7 -34 7 32 7 -70 7 81 7 -64 
7 -5 7 26 7 -72 7 28 6 -12 7 -53 7 4 7 -24 
7 4 7 -24 7 14 7 2 7 -29 7 -8 7 -31 7 56 
7 -23 7 -63 7 -2 7 13 7 -33 7 7 6 -49 7 -35 
7 5 7 41 7 -72 7 29 7 -34 7 4 7 -30 7 26 
7 -19 7 -13 7 -11 7 0 7 -62 7 -4 7 2 6 12 
7 -9 7 -58 7 23 7 -54 7 8 7 -14 7 34 7 -27 
7 -46 7 22 7 -41 7 13 7 -18 7 -14 7 -23 7 13 
7 -41 6 9 7 -10 7 7 7 -6 7 -16 7 -41 7 -16 
7 20 7 -34 7 -9 7 -10 7 -10 7 -10 7 -9 7 -47 
7 22 7 -38 7 -16 6 12 7 -18 7 2 7 -25 7 -3 
7 -14 7 -11 7 -14 1011 3675 212 MP stroke
gr

c8

end %%Color Dict

eplot
%%EndObject

epage
end

showpage

%%Trailer
%%EOF
