%!PS-Adobe-3.0 EPSF-3.0
%%Creator: MATLAB, The MathWorks, Inc. Version 7.14.0.739 (R2012a). Operating System: Linux 4.1.1-gentoo-r1-globalbus #2 SMP Thu Jul 23 21:26:56 CEST 2015 x86_64.
%%Title: /home/globalbus/Uczelnia/Magisterka/docs/graphics/sShape2.eps
%%CreationDate: 08/03/2015  04:57:11
%%DocumentNeededFonts: Helvetica
%%DocumentProcessColors: Cyan Magenta Yellow Black
%%LanguageLevel: 2
%%Pages: 1
%%BoundingBox:    73   259   521   580
%%EndComments

%%BeginProlog
% MathWorks dictionary
/MathWorks 160 dict begin
% definition operators
/bdef {bind def} bind def
/ldef {load def} bind def
/xdef {exch def} bdef
/xstore {exch store} bdef
% operator abbreviations
/c  /clip ldef
/cc /concat ldef
/cp /closepath ldef
/gr /grestore ldef
/gs /gsave ldef
/mt /moveto ldef
/np /newpath ldef
/cm /currentmatrix ldef
/sm /setmatrix ldef
/rm /rmoveto ldef
/rl /rlineto ldef
/s {show newpath} bdef
/sc {setcmykcolor} bdef
/sr /setrgbcolor ldef
/sg /setgray ldef
/w /setlinewidth ldef
/j /setlinejoin ldef
/cap /setlinecap ldef
/rc {rectclip} bdef
/rf {rectfill} bdef
% page state control
/pgsv () def
/bpage {/pgsv save def} bdef
/epage {pgsv restore} bdef
/bplot /gsave ldef
/eplot {stroke grestore} bdef
% orientation switch
/portraitMode 0 def /landscapeMode 1 def /rotateMode 2 def
% coordinate system mappings
/dpi2point 0 def
% font control
/FontSize 0 def
/FMS {/FontSize xstore findfont [FontSize 0 0 FontSize neg 0 0]
  makefont setfont} bdef
/reencode {exch dup where {pop load} {pop StandardEncoding} ifelse
  exch dup 3 1 roll findfont dup length dict begin
  { 1 index /FID ne {def}{pop pop} ifelse } forall
  /Encoding exch def currentdict end definefont pop} bdef
/isroman {findfont /CharStrings get /Agrave known} bdef
/FMSR {3 1 roll 1 index dup isroman {reencode} {pop pop} ifelse
  exch FMS} bdef
/csm {1 dpi2point div -1 dpi2point div scale neg translate
 dup landscapeMode eq {pop -90 rotate}
  {rotateMode eq {90 rotate} if} ifelse} bdef
% line types: solid, dotted, dashed, dotdash
/SO { [] 0 setdash } bdef
/DO { [.5 dpi2point mul 4 dpi2point mul] 0 setdash } bdef
/DA { [6 dpi2point mul] 0 setdash } bdef
/DD { [.5 dpi2point mul 4 dpi2point mul 6 dpi2point mul 4
  dpi2point mul] 0 setdash } bdef
% macros for lines and objects
/L {lineto stroke} bdef
/MP {3 1 roll moveto 1 sub {rlineto} repeat} bdef
/AP {{rlineto} repeat} bdef
/PDlw -1 def
/W {/PDlw currentlinewidth def setlinewidth} def
/PP {closepath eofill} bdef
/DP {closepath stroke} bdef
/MR {4 -2 roll moveto dup  0 exch rlineto exch 0 rlineto
  neg 0 exch rlineto closepath} bdef
/FR {MR stroke} bdef
/PR {MR fill} bdef
/L1i {{currentfile picstr readhexstring pop} image} bdef
/tMatrix matrix def
/MakeOval {newpath tMatrix currentmatrix pop translate scale
0 0 1 0 360 arc tMatrix setmatrix} bdef
/FO {MakeOval stroke} bdef
/PO {MakeOval fill} bdef
/PD {currentlinewidth 2 div 0 360 arc fill
   PDlw -1 eq not {PDlw w /PDlw -1 def} if} def
/FA {newpath tMatrix currentmatrix pop translate scale
  0 0 1 5 -2 roll arc tMatrix setmatrix stroke} bdef
/PA {newpath tMatrix currentmatrix pop	translate 0 0 moveto scale
  0 0 1 5 -2 roll arc closepath tMatrix setmatrix fill} bdef
/FAn {newpath tMatrix currentmatrix pop translate scale
  0 0 1 5 -2 roll arcn tMatrix setmatrix stroke} bdef
/PAn {newpath tMatrix currentmatrix pop translate 0 0 moveto scale
  0 0 1 5 -2 roll arcn closepath tMatrix setmatrix fill} bdef
/vradius 0 def /hradius 0 def /lry 0 def
/lrx 0 def /uly 0 def /ulx 0 def /rad 0 def
/MRR {/vradius xdef /hradius xdef /lry xdef /lrx xdef /uly xdef
  /ulx xdef newpath tMatrix currentmatrix pop ulx hradius add uly
  vradius add translate hradius vradius scale 0 0 1 180 270 arc 
  tMatrix setmatrix lrx hradius sub uly vradius add translate
  hradius vradius scale 0 0 1 270 360 arc tMatrix setmatrix
  lrx hradius sub lry vradius sub translate hradius vradius scale
  0 0 1 0 90 arc tMatrix setmatrix ulx hradius add lry vradius sub
  translate hradius vradius scale 0 0 1 90 180 arc tMatrix setmatrix
  closepath} bdef
/FRR {MRR stroke } bdef
/PRR {MRR fill } bdef
/MlrRR {/lry xdef /lrx xdef /uly xdef /ulx xdef /rad lry uly sub 2 div def
  newpath tMatrix currentmatrix pop ulx rad add uly rad add translate
  rad rad scale 0 0 1 90 270 arc tMatrix setmatrix lrx rad sub lry rad
  sub translate rad rad scale 0 0 1 270 90 arc tMatrix setmatrix
  closepath} bdef
/FlrRR {MlrRR stroke } bdef
/PlrRR {MlrRR fill } bdef
/MtbRR {/lry xdef /lrx xdef /uly xdef /ulx xdef /rad lrx ulx sub 2 div def
  newpath tMatrix currentmatrix pop ulx rad add uly rad add translate
  rad rad scale 0 0 1 180 360 arc tMatrix setmatrix lrx rad sub lry rad
  sub translate rad rad scale 0 0 1 0 180 arc tMatrix setmatrix
  closepath} bdef
/FtbRR {MtbRR stroke } bdef
/PtbRR {MtbRR fill } bdef
/stri 6 array def /dtri 6 array def
/smat 6 array def /dmat 6 array def
/tmat1 6 array def /tmat2 6 array def /dif 3 array def
/asub {/ind2 exch def /ind1 exch def dup dup
  ind1 get exch ind2 get sub exch } bdef
/tri_to_matrix {
  2 0 asub 3 1 asub 4 0 asub 5 1 asub
  dup 0 get exch 1 get 7 -1 roll astore } bdef
/compute_transform {
  dmat dtri tri_to_matrix tmat1 invertmatrix 
  smat stri tri_to_matrix tmat2 concatmatrix } bdef
/ds {stri astore pop} bdef
/dt {dtri astore pop} bdef
/db {2 copy /cols xdef /rows xdef mul dup 3 mul string
  currentfile 
  3 index 0 eq {/ASCIIHexDecode filter}
  {/ASCII85Decode filter 3 index 2 eq {/RunLengthDecode filter} if }
  ifelse exch readstring pop
  dup 0 3 index getinterval /rbmap xdef
  dup 2 index dup getinterval /gbmap xdef
  1 index dup 2 mul exch getinterval /bbmap xdef pop pop}bdef
/it {gs np dtri aload pop moveto lineto lineto cp c
  cols rows 8 compute_transform 
  rbmap gbmap bbmap true 3 colorimage gr}bdef
/il {newpath moveto lineto stroke}bdef
currentdict end def
%%EndProlog

%%BeginSetup
MathWorks begin

0 cap

end
%%EndSetup

%%Page: 1 1
%%BeginPageSetup
%%PageBoundingBox:    73   259   521   580
MathWorks begin
bpage
%%EndPageSetup

%%BeginObject: obj1
bplot

/dpi2point 12 def
portraitMode 0876 6960 csm

    0     0  5376  3841 rc
85 dict begin %Colortable dictionary
/c0 { 0.000000 0.000000 0.000000 sr} bdef
/c1 { 1.000000 1.000000 1.000000 sr} bdef
/c2 { 0.900000 0.000000 0.000000 sr} bdef
/c3 { 0.000000 0.820000 0.000000 sr} bdef
/c4 { 0.000000 0.000000 0.800000 sr} bdef
/c5 { 0.910000 0.820000 0.320000 sr} bdef
/c6 { 1.000000 0.260000 0.820000 sr} bdef
/c7 { 0.000000 0.820000 0.820000 sr} bdef
c0
1 j
1 sg
   0    0 5377 3842 rf
6 w
0 3130 4166 0 0 -3130 699 3418 4 MP
PP
-4166 0 0 3130 4166 0 0 -3130 699 3418 5 MP stroke
4 w
DO
SO
6 w
0 sg
 699 3418 mt 4865 3418 L
 699  288 mt 4865  288 L
 699 3418 mt  699  288 L
4865 3418 mt 4865  288 L
 699 3418 mt 4865 3418 L
 699 3418 mt  699  288 L
 699 3418 mt  699 3376 L
 699  288 mt  699  329 L
%%IncludeResource: font Helvetica
/Helvetica /ISOLatin1Encoding 120 FMSR

 666 3563 mt 
(0) s
1161 3418 mt 1161 3376 L
1161  288 mt 1161  329 L
1128 3563 mt 
(1) s
1624 3418 mt 1624 3376 L
1624  288 mt 1624  329 L
1591 3563 mt 
(2) s
2087 3418 mt 2087 3376 L
2087  288 mt 2087  329 L
2054 3563 mt 
(3) s
2550 3418 mt 2550 3376 L
2550  288 mt 2550  329 L
2517 3563 mt 
(4) s
3013 3418 mt 3013 3376 L
3013  288 mt 3013  329 L
2980 3563 mt 
(5) s
3476 3418 mt 3476 3376 L
3476  288 mt 3476  329 L
3443 3563 mt 
(6) s
3939 3418 mt 3939 3376 L
3939  288 mt 3939  329 L
3906 3563 mt 
(7) s
4402 3418 mt 4402 3376 L
4402  288 mt 4402  329 L
4369 3563 mt 
(8) s
4865 3418 mt 4865 3376 L
4865  288 mt 4865  329 L
4832 3563 mt 
(9) s
 699 3418 mt  740 3418 L
4865 3418 mt 4823 3418 L
 598 3462 mt 
(0) s
 699 3070 mt  740 3070 L
4865 3070 mt 4823 3070 L
 598 3114 mt 
(1) s
 699 2722 mt  740 2722 L
4865 2722 mt 4823 2722 L
 598 2766 mt 
(2) s
 699 2374 mt  740 2374 L
4865 2374 mt 4823 2374 L
 598 2418 mt 
(3) s
 699 2026 mt  740 2026 L
4865 2026 mt 4823 2026 L
 598 2070 mt 
(4) s
 699 1679 mt  740 1679 L
4865 1679 mt 4823 1679 L
 598 1723 mt 
(5) s
 699 1331 mt  740 1331 L
4865 1331 mt 4823 1331 L
 598 1375 mt 
(6) s
 699  983 mt  740  983 L
4865  983 mt 4823  983 L
 598 1027 mt 
(7) s
 699  635 mt  740  635 L
4865  635 mt 4823  635 L
 598  679 mt 
(8) s
 699  288 mt  740  288 L
4865  288 mt 4823  288 L
 598  332 mt 
(9) s
 699 3418 mt 4865 3418 L
 699  288 mt 4865  288 L
 699 3418 mt  699  288 L
4865 3418 mt 4865  288 L
gs 699 288 4167 3131 rc
/c8 { 0.000000 0.000000 1.000000 sr} bdef
c8
0 348 0 348 0 348 0 347 0 348 0 348 0 348 463 0 
0 -348 0 -348 0 -348 0 -347 0 -348 0 -348 0 -348 463 0 
0 348 0 348 0 348 0 347 0 348 0 348 0 348 463 0 
0 -348 0 -348 0 -348 0 -347 0 -348 0 -348 0 -348 463 0 
0 348 0 348 0 348 0 347 0 348 0 348 0 348 463 0 
0 -348 0 -348 0 -348 0 -347 0 -348 0 -348 0 -348 463 0 
0 348 0 348 0 348 0 347 0 348 0 348 0 348 463 0 
0 -348 0 -348 0 -348 0 -347 0 -348 0 -348 0 -348 1161 3070 64 MP stroke
gr

c8
24 W
1161 3070 PD
24 W
1161 2722 PD
24 W
1161 2374 PD
24 W
1161 2026 PD
24 W
1161 1679 PD
24 W
1161 1331 PD
24 W
1161 983 PD
24 W
1161 635 PD
24 W
1624 635 PD
24 W
1624 983 PD
24 W
1624 1331 PD
24 W
1624 1679 PD
24 W
1624 2026 PD
24 W
1624 2374 PD
24 W
1624 2722 PD
24 W
1624 3070 PD
24 W
2087 3070 PD
24 W
2087 2722 PD
24 W
2087 2374 PD
24 W
2087 2026 PD
24 W
2087 1679 PD
24 W
2087 1331 PD
24 W
2087 983 PD
24 W
2087 635 PD
24 W
2550 635 PD
24 W
2550 983 PD
24 W
2550 1331 PD
24 W
2550 1679 PD
24 W
2550 2026 PD
24 W
2550 2374 PD
24 W
2550 2722 PD
24 W
2550 3070 PD
24 W
3013 3070 PD
24 W
3013 2722 PD
24 W
3013 2374 PD
24 W
3013 2026 PD
24 W
3013 1679 PD
24 W
3013 1331 PD
24 W
3013 983 PD
24 W
3013 635 PD
24 W
3476 635 PD
24 W
3476 983 PD
24 W
3476 1331 PD
24 W
3476 1679 PD
24 W
3476 2026 PD
24 W
3476 2374 PD
24 W
3476 2722 PD
24 W
3476 3070 PD
24 W
3939 3070 PD
24 W
3939 2722 PD
24 W
3939 2374 PD
24 W
3939 2026 PD
24 W
3939 1679 PD
24 W
3939 1331 PD
24 W
3939 983 PD
24 W
3939 635 PD
24 W
4402 635 PD
24 W
4402 983 PD
24 W
4402 1331 PD
24 W
4402 1679 PD
24 W
4402 2026 PD
24 W
4402 2374 PD
24 W
4402 2722 PD
24 W
4402 3070 PD
gs 699 288 4167 3131 rc
gr


end %%Color Dict

eplot
%%EndObject

epage
end

showpage

%%Trailer
%%EOF
