%!PS-Adobe-3.0 EPSF-3.0
%%Creator: MATLAB, The MathWorks, Inc. Version 7.14.0.739 (R2012a). Operating System: Linux 4.1.1-gentoo-r1-globalbus #2 SMP Thu Jul 23 21:26:56 CEST 2015 x86_64.
%%Title: /home/globalbus/Uczelnia/Magisterka/docs/graphics/zorder.eps
%%CreationDate: 08/03/2015  04:56:26
%%DocumentNeededFonts: Helvetica
%%DocumentProcessColors: Cyan Magenta Yellow Black
%%LanguageLevel: 2
%%Pages: 1
%%BoundingBox:    73   248   521   593
%%EndComments

%%BeginProlog
% MathWorks dictionary
/MathWorks 160 dict begin
% definition operators
/bdef {bind def} bind def
/ldef {load def} bind def
/xdef {exch def} bdef
/xstore {exch store} bdef
% operator abbreviations
/c  /clip ldef
/cc /concat ldef
/cp /closepath ldef
/gr /grestore ldef
/gs /gsave ldef
/mt /moveto ldef
/np /newpath ldef
/cm /currentmatrix ldef
/sm /setmatrix ldef
/rm /rmoveto ldef
/rl /rlineto ldef
/s {show newpath} bdef
/sc {setcmykcolor} bdef
/sr /setrgbcolor ldef
/sg /setgray ldef
/w /setlinewidth ldef
/j /setlinejoin ldef
/cap /setlinecap ldef
/rc {rectclip} bdef
/rf {rectfill} bdef
% page state control
/pgsv () def
/bpage {/pgsv save def} bdef
/epage {pgsv restore} bdef
/bplot /gsave ldef
/eplot {stroke grestore} bdef
% orientation switch
/portraitMode 0 def /landscapeMode 1 def /rotateMode 2 def
% coordinate system mappings
/dpi2point 0 def
% font control
/FontSize 0 def
/FMS {/FontSize xstore findfont [FontSize 0 0 FontSize neg 0 0]
  makefont setfont} bdef
/reencode {exch dup where {pop load} {pop StandardEncoding} ifelse
  exch dup 3 1 roll findfont dup length dict begin
  { 1 index /FID ne {def}{pop pop} ifelse } forall
  /Encoding exch def currentdict end definefont pop} bdef
/isroman {findfont /CharStrings get /Agrave known} bdef
/FMSR {3 1 roll 1 index dup isroman {reencode} {pop pop} ifelse
  exch FMS} bdef
/csm {1 dpi2point div -1 dpi2point div scale neg translate
 dup landscapeMode eq {pop -90 rotate}
  {rotateMode eq {90 rotate} if} ifelse} bdef
% line types: solid, dotted, dashed, dotdash
/SO { [] 0 setdash } bdef
/DO { [.5 dpi2point mul 4 dpi2point mul] 0 setdash } bdef
/DA { [6 dpi2point mul] 0 setdash } bdef
/DD { [.5 dpi2point mul 4 dpi2point mul 6 dpi2point mul 4
  dpi2point mul] 0 setdash } bdef
% macros for lines and objects
/L {lineto stroke} bdef
/MP {3 1 roll moveto 1 sub {rlineto} repeat} bdef
/AP {{rlineto} repeat} bdef
/PDlw -1 def
/W {/PDlw currentlinewidth def setlinewidth} def
/PP {closepath eofill} bdef
/DP {closepath stroke} bdef
/MR {4 -2 roll moveto dup  0 exch rlineto exch 0 rlineto
  neg 0 exch rlineto closepath} bdef
/FR {MR stroke} bdef
/PR {MR fill} bdef
/L1i {{currentfile picstr readhexstring pop} image} bdef
/tMatrix matrix def
/MakeOval {newpath tMatrix currentmatrix pop translate scale
0 0 1 0 360 arc tMatrix setmatrix} bdef
/FO {MakeOval stroke} bdef
/PO {MakeOval fill} bdef
/PD {currentlinewidth 2 div 0 360 arc fill
   PDlw -1 eq not {PDlw w /PDlw -1 def} if} def
/FA {newpath tMatrix currentmatrix pop translate scale
  0 0 1 5 -2 roll arc tMatrix setmatrix stroke} bdef
/PA {newpath tMatrix currentmatrix pop	translate 0 0 moveto scale
  0 0 1 5 -2 roll arc closepath tMatrix setmatrix fill} bdef
/FAn {newpath tMatrix currentmatrix pop translate scale
  0 0 1 5 -2 roll arcn tMatrix setmatrix stroke} bdef
/PAn {newpath tMatrix currentmatrix pop translate 0 0 moveto scale
  0 0 1 5 -2 roll arcn closepath tMatrix setmatrix fill} bdef
/vradius 0 def /hradius 0 def /lry 0 def
/lrx 0 def /uly 0 def /ulx 0 def /rad 0 def
/MRR {/vradius xdef /hradius xdef /lry xdef /lrx xdef /uly xdef
  /ulx xdef newpath tMatrix currentmatrix pop ulx hradius add uly
  vradius add translate hradius vradius scale 0 0 1 180 270 arc 
  tMatrix setmatrix lrx hradius sub uly vradius add translate
  hradius vradius scale 0 0 1 270 360 arc tMatrix setmatrix
  lrx hradius sub lry vradius sub translate hradius vradius scale
  0 0 1 0 90 arc tMatrix setmatrix ulx hradius add lry vradius sub
  translate hradius vradius scale 0 0 1 90 180 arc tMatrix setmatrix
  closepath} bdef
/FRR {MRR stroke } bdef
/PRR {MRR fill } bdef
/MlrRR {/lry xdef /lrx xdef /uly xdef /ulx xdef /rad lry uly sub 2 div def
  newpath tMatrix currentmatrix pop ulx rad add uly rad add translate
  rad rad scale 0 0 1 90 270 arc tMatrix setmatrix lrx rad sub lry rad
  sub translate rad rad scale 0 0 1 270 90 arc tMatrix setmatrix
  closepath} bdef
/FlrRR {MlrRR stroke } bdef
/PlrRR {MlrRR fill } bdef
/MtbRR {/lry xdef /lrx xdef /uly xdef /ulx xdef /rad lrx ulx sub 2 div def
  newpath tMatrix currentmatrix pop ulx rad add uly rad add translate
  rad rad scale 0 0 1 180 360 arc tMatrix setmatrix lrx rad sub lry rad
  sub translate rad rad scale 0 0 1 0 180 arc tMatrix setmatrix
  closepath} bdef
/FtbRR {MtbRR stroke } bdef
/PtbRR {MtbRR fill } bdef
/stri 6 array def /dtri 6 array def
/smat 6 array def /dmat 6 array def
/tmat1 6 array def /tmat2 6 array def /dif 3 array def
/asub {/ind2 exch def /ind1 exch def dup dup
  ind1 get exch ind2 get sub exch } bdef
/tri_to_matrix {
  2 0 asub 3 1 asub 4 0 asub 5 1 asub
  dup 0 get exch 1 get 7 -1 roll astore } bdef
/compute_transform {
  dmat dtri tri_to_matrix tmat1 invertmatrix 
  smat stri tri_to_matrix tmat2 concatmatrix } bdef
/ds {stri astore pop} bdef
/dt {dtri astore pop} bdef
/db {2 copy /cols xdef /rows xdef mul dup 3 mul string
  currentfile 
  3 index 0 eq {/ASCIIHexDecode filter}
  {/ASCII85Decode filter 3 index 2 eq {/RunLengthDecode filter} if }
  ifelse exch readstring pop
  dup 0 3 index getinterval /rbmap xdef
  dup 2 index dup getinterval /gbmap xdef
  1 index dup 2 mul exch getinterval /bbmap xdef pop pop}bdef
/it {gs np dtri aload pop moveto lineto lineto cp c
  cols rows 8 compute_transform 
  rbmap gbmap bbmap true 3 colorimage gr}bdef
/il {newpath moveto lineto stroke}bdef
currentdict end def
%%EndProlog

%%BeginSetup
MathWorks begin

0 cap

end
%%EndSetup

%%Page: 1 1
%%BeginPageSetup
%%PageBoundingBox:    73   248   521   593
MathWorks begin
bpage
%%EndPageSetup

%%BeginObject: obj1
bplot

/dpi2point 12 def
portraitMode 0876 7116 csm

    0     0  5376  4130 rc
85 dict begin %Colortable dictionary
/c0 { 0.000000 0.000000 0.000000 sr} bdef
/c1 { 1.000000 1.000000 1.000000 sr} bdef
/c2 { 0.900000 0.000000 0.000000 sr} bdef
/c3 { 0.000000 0.820000 0.000000 sr} bdef
/c4 { 0.000000 0.000000 0.800000 sr} bdef
/c5 { 0.910000 0.820000 0.320000 sr} bdef
/c6 { 1.000000 0.260000 0.820000 sr} bdef
/c7 { 0.000000 0.820000 0.820000 sr} bdef
c0
1 j
1 sg
   0    0 5377 4131 rf
6 w
0 3366 4166 0 0 -3366 699 3676 4 MP
PP
-4166 0 0 3366 4166 0 0 -3366 699 3676 5 MP stroke
4 w
DO
SO
6 w
0 sg
 699 3676 mt 4865 3676 L
 699  310 mt 4865  310 L
 699 3676 mt  699  310 L
4865 3676 mt 4865  310 L
 699 3676 mt 4865 3676 L
 699 3676 mt  699  310 L
 699 3676 mt  699 3634 L
 699  310 mt  699  351 L
%%IncludeResource: font Helvetica
/Helvetica /ISOLatin1Encoding 120 FMSR

 666 3821 mt 
(0) s
1161 3676 mt 1161 3634 L
1161  310 mt 1161  351 L
1128 3821 mt 
(1) s
1624 3676 mt 1624 3634 L
1624  310 mt 1624  351 L
1591 3821 mt 
(2) s
2087 3676 mt 2087 3634 L
2087  310 mt 2087  351 L
2054 3821 mt 
(3) s
2550 3676 mt 2550 3634 L
2550  310 mt 2550  351 L
2517 3821 mt 
(4) s
3013 3676 mt 3013 3634 L
3013  310 mt 3013  351 L
2980 3821 mt 
(5) s
3476 3676 mt 3476 3634 L
3476  310 mt 3476  351 L
3443 3821 mt 
(6) s
3939 3676 mt 3939 3634 L
3939  310 mt 3939  351 L
3906 3821 mt 
(7) s
4402 3676 mt 4402 3634 L
4402  310 mt 4402  351 L
4369 3821 mt 
(8) s
4865 3676 mt 4865 3634 L
4865  310 mt 4865  351 L
4832 3821 mt 
(9) s
 699 3676 mt  740 3676 L
4865 3676 mt 4823 3676 L
 598 3720 mt 
(0) s
 699 3302 mt  740 3302 L
4865 3302 mt 4823 3302 L
 598 3346 mt 
(1) s
 699 2928 mt  740 2928 L
4865 2928 mt 4823 2928 L
 598 2972 mt 
(2) s
 699 2554 mt  740 2554 L
4865 2554 mt 4823 2554 L
 598 2598 mt 
(3) s
 699 2180 mt  740 2180 L
4865 2180 mt 4823 2180 L
 598 2224 mt 
(4) s
 699 1806 mt  740 1806 L
4865 1806 mt 4823 1806 L
 598 1850 mt 
(5) s
 699 1432 mt  740 1432 L
4865 1432 mt 4823 1432 L
 598 1476 mt 
(6) s
 699 1058 mt  740 1058 L
4865 1058 mt 4823 1058 L
 598 1102 mt 
(7) s
 699  684 mt  740  684 L
4865  684 mt 4823  684 L
 598  728 mt 
(8) s
 699  310 mt  740  310 L
4865  310 mt 4823  310 L
 598  354 mt 
(9) s
 699 3676 mt 4865 3676 L
 699  310 mt 4865  310 L
 699 3676 mt  699  310 L
4865 3676 mt 4865  310 L
gs 699 310 4167 3367 rc
/c8 { 0.000000 0.000000 1.000000 sr} bdef
c8
463 0 -463 -374 463 0 463 374 463 0 -463 -374 463 0 -1389 -374 
463 0 -463 -374 463 0 463 374 463 0 -463 -374 463 0 463 1122 
463 0 -463 -374 463 0 463 374 463 0 -463 -374 463 0 -1389 -374 
463 0 -463 -374 463 0 463 374 463 0 -463 -374 463 0 -3241 -374 
463 0 -463 -374 463 0 463 374 463 0 -463 -374 463 0 -1389 -374 
463 0 -463 -374 463 0 463 374 463 0 -463 -374 463 0 463 1122 
463 0 -463 -374 463 0 463 374 463 0 -463 -374 463 0 -1389 -374 
463 0 -463 -374 463 0 463 374 463 0 -463 -374 463 0 1161 3302 64 MP stroke
gr

c8
24 W
1161 3302 PD
24 W
1624 3302 PD
24 W
1161 2928 PD
24 W
1624 2928 PD
24 W
2087 3302 PD
24 W
2550 3302 PD
24 W
2087 2928 PD
24 W
2550 2928 PD
24 W
1161 2554 PD
24 W
1624 2554 PD
24 W
1161 2180 PD
24 W
1624 2180 PD
24 W
2087 2554 PD
24 W
2550 2554 PD
24 W
2087 2180 PD
24 W
2550 2180 PD
24 W
3013 3302 PD
24 W
3476 3302 PD
24 W
3013 2928 PD
24 W
3476 2928 PD
24 W
3939 3302 PD
24 W
4402 3302 PD
24 W
3939 2928 PD
24 W
4402 2928 PD
24 W
3013 2554 PD
24 W
3476 2554 PD
24 W
3013 2180 PD
24 W
3476 2180 PD
24 W
3939 2554 PD
24 W
4402 2554 PD
24 W
3939 2180 PD
24 W
4402 2180 PD
24 W
1161 1806 PD
24 W
1624 1806 PD
24 W
1161 1432 PD
24 W
1624 1432 PD
24 W
2087 1806 PD
24 W
2550 1806 PD
24 W
2087 1432 PD
24 W
2550 1432 PD
24 W
1161 1058 PD
24 W
1624 1058 PD
24 W
1161 684 PD
24 W
1624 684 PD
24 W
2087 1058 PD
24 W
2550 1058 PD
24 W
2087 684 PD
24 W
2550 684 PD
24 W
3013 1806 PD
24 W
3476 1806 PD
24 W
3013 1432 PD
24 W
3476 1432 PD
24 W
3939 1806 PD
24 W
4402 1806 PD
24 W
3939 1432 PD
24 W
4402 1432 PD
24 W
3013 1058 PD
24 W
3476 1058 PD
24 W
3013 684 PD
24 W
3476 684 PD
24 W
3939 1058 PD
24 W
4402 1058 PD
24 W
3939 684 PD
24 W
4402 684 PD
gs 699 310 4167 3367 rc
gr


end %%Color Dict

eplot
%%EndObject

epage
end

showpage

%%Trailer
%%EOF
